G75*
G70*
%OFA0B0*%
%FSLAX24Y24*%
%IPPOS*%
%LPD*%
%AMOC8*
5,1,8,0,0,1.08239X$1,22.5*
%
%ADD10C,0.0000*%
D10*
X005291Y002560D02*
X005291Y024056D01*
X045661Y024056D01*
X045661Y002560D01*
X005291Y002560D01*
X025911Y020060D02*
X025913Y020110D01*
X025919Y020160D01*
X025929Y020209D01*
X025943Y020257D01*
X025960Y020304D01*
X025981Y020349D01*
X026006Y020393D01*
X026034Y020434D01*
X026066Y020473D01*
X026100Y020510D01*
X026137Y020544D01*
X026177Y020574D01*
X026219Y020601D01*
X026263Y020625D01*
X026309Y020646D01*
X026356Y020662D01*
X026404Y020675D01*
X026454Y020684D01*
X026503Y020689D01*
X026554Y020690D01*
X026604Y020687D01*
X026653Y020680D01*
X026702Y020669D01*
X026750Y020654D01*
X026796Y020636D01*
X026841Y020614D01*
X026884Y020588D01*
X026925Y020559D01*
X026964Y020527D01*
X027000Y020492D01*
X027032Y020454D01*
X027062Y020414D01*
X027089Y020371D01*
X027112Y020327D01*
X027131Y020281D01*
X027147Y020233D01*
X027159Y020184D01*
X027167Y020135D01*
X027171Y020085D01*
X027171Y020035D01*
X027167Y019985D01*
X027159Y019936D01*
X027147Y019887D01*
X027131Y019839D01*
X027112Y019793D01*
X027089Y019749D01*
X027062Y019706D01*
X027032Y019666D01*
X027000Y019628D01*
X026964Y019593D01*
X026925Y019561D01*
X026884Y019532D01*
X026841Y019506D01*
X026796Y019484D01*
X026750Y019466D01*
X026702Y019451D01*
X026653Y019440D01*
X026604Y019433D01*
X026554Y019430D01*
X026503Y019431D01*
X026454Y019436D01*
X026404Y019445D01*
X026356Y019458D01*
X026309Y019474D01*
X026263Y019495D01*
X026219Y019519D01*
X026177Y019546D01*
X026137Y019576D01*
X026100Y019610D01*
X026066Y019647D01*
X026034Y019686D01*
X026006Y019727D01*
X025981Y019771D01*
X025960Y019816D01*
X025943Y019863D01*
X025929Y019911D01*
X025919Y019960D01*
X025913Y020010D01*
X025911Y020060D01*
X030411Y020060D02*
X030413Y020110D01*
X030419Y020160D01*
X030429Y020209D01*
X030443Y020257D01*
X030460Y020304D01*
X030481Y020349D01*
X030506Y020393D01*
X030534Y020434D01*
X030566Y020473D01*
X030600Y020510D01*
X030637Y020544D01*
X030677Y020574D01*
X030719Y020601D01*
X030763Y020625D01*
X030809Y020646D01*
X030856Y020662D01*
X030904Y020675D01*
X030954Y020684D01*
X031003Y020689D01*
X031054Y020690D01*
X031104Y020687D01*
X031153Y020680D01*
X031202Y020669D01*
X031250Y020654D01*
X031296Y020636D01*
X031341Y020614D01*
X031384Y020588D01*
X031425Y020559D01*
X031464Y020527D01*
X031500Y020492D01*
X031532Y020454D01*
X031562Y020414D01*
X031589Y020371D01*
X031612Y020327D01*
X031631Y020281D01*
X031647Y020233D01*
X031659Y020184D01*
X031667Y020135D01*
X031671Y020085D01*
X031671Y020035D01*
X031667Y019985D01*
X031659Y019936D01*
X031647Y019887D01*
X031631Y019839D01*
X031612Y019793D01*
X031589Y019749D01*
X031562Y019706D01*
X031532Y019666D01*
X031500Y019628D01*
X031464Y019593D01*
X031425Y019561D01*
X031384Y019532D01*
X031341Y019506D01*
X031296Y019484D01*
X031250Y019466D01*
X031202Y019451D01*
X031153Y019440D01*
X031104Y019433D01*
X031054Y019430D01*
X031003Y019431D01*
X030954Y019436D01*
X030904Y019445D01*
X030856Y019458D01*
X030809Y019474D01*
X030763Y019495D01*
X030719Y019519D01*
X030677Y019546D01*
X030637Y019576D01*
X030600Y019610D01*
X030566Y019647D01*
X030534Y019686D01*
X030506Y019727D01*
X030481Y019771D01*
X030460Y019816D01*
X030443Y019863D01*
X030429Y019911D01*
X030419Y019960D01*
X030413Y020010D01*
X030411Y020060D01*
X034228Y004800D02*
X034230Y004827D01*
X034236Y004854D01*
X034245Y004880D01*
X034258Y004904D01*
X034274Y004927D01*
X034293Y004946D01*
X034315Y004963D01*
X034339Y004977D01*
X034364Y004987D01*
X034391Y004994D01*
X034418Y004997D01*
X034446Y004996D01*
X034473Y004991D01*
X034499Y004983D01*
X034523Y004971D01*
X034546Y004955D01*
X034567Y004937D01*
X034584Y004916D01*
X034599Y004892D01*
X034610Y004867D01*
X034618Y004841D01*
X034622Y004814D01*
X034622Y004786D01*
X034618Y004759D01*
X034610Y004733D01*
X034599Y004708D01*
X034584Y004684D01*
X034567Y004663D01*
X034546Y004645D01*
X034524Y004629D01*
X034499Y004617D01*
X034473Y004609D01*
X034446Y004604D01*
X034418Y004603D01*
X034391Y004606D01*
X034364Y004613D01*
X034339Y004623D01*
X034315Y004637D01*
X034293Y004654D01*
X034274Y004673D01*
X034258Y004696D01*
X034245Y004720D01*
X034236Y004746D01*
X034230Y004773D01*
X034228Y004800D01*
X035960Y004800D02*
X035962Y004827D01*
X035968Y004854D01*
X035977Y004880D01*
X035990Y004904D01*
X036006Y004927D01*
X036025Y004946D01*
X036047Y004963D01*
X036071Y004977D01*
X036096Y004987D01*
X036123Y004994D01*
X036150Y004997D01*
X036178Y004996D01*
X036205Y004991D01*
X036231Y004983D01*
X036255Y004971D01*
X036278Y004955D01*
X036299Y004937D01*
X036316Y004916D01*
X036331Y004892D01*
X036342Y004867D01*
X036350Y004841D01*
X036354Y004814D01*
X036354Y004786D01*
X036350Y004759D01*
X036342Y004733D01*
X036331Y004708D01*
X036316Y004684D01*
X036299Y004663D01*
X036278Y004645D01*
X036256Y004629D01*
X036231Y004617D01*
X036205Y004609D01*
X036178Y004604D01*
X036150Y004603D01*
X036123Y004606D01*
X036096Y004613D01*
X036071Y004623D01*
X036047Y004637D01*
X036025Y004654D01*
X036006Y004673D01*
X035990Y004696D01*
X035977Y004720D01*
X035968Y004746D01*
X035962Y004773D01*
X035960Y004800D01*
X006102Y022560D02*
X006104Y022612D01*
X006110Y022664D01*
X006120Y022715D01*
X006133Y022765D01*
X006151Y022815D01*
X006172Y022862D01*
X006196Y022908D01*
X006225Y022952D01*
X006256Y022994D01*
X006290Y023033D01*
X006327Y023070D01*
X006367Y023103D01*
X006410Y023134D01*
X006454Y023161D01*
X006500Y023185D01*
X006549Y023205D01*
X006598Y023221D01*
X006649Y023234D01*
X006700Y023243D01*
X006752Y023248D01*
X006804Y023249D01*
X006856Y023246D01*
X006908Y023239D01*
X006959Y023228D01*
X007009Y023214D01*
X007058Y023195D01*
X007105Y023173D01*
X007150Y023148D01*
X007194Y023119D01*
X007235Y023087D01*
X007274Y023052D01*
X007309Y023014D01*
X007342Y022973D01*
X007372Y022931D01*
X007398Y022886D01*
X007421Y022839D01*
X007440Y022790D01*
X007456Y022740D01*
X007468Y022690D01*
X007476Y022638D01*
X007480Y022586D01*
X007480Y022534D01*
X007476Y022482D01*
X007468Y022430D01*
X007456Y022380D01*
X007440Y022330D01*
X007421Y022281D01*
X007398Y022234D01*
X007372Y022189D01*
X007342Y022147D01*
X007309Y022106D01*
X007274Y022068D01*
X007235Y022033D01*
X007194Y022001D01*
X007150Y021972D01*
X007105Y021947D01*
X007058Y021925D01*
X007009Y021906D01*
X006959Y021892D01*
X006908Y021881D01*
X006856Y021874D01*
X006804Y021871D01*
X006752Y021872D01*
X006700Y021877D01*
X006649Y021886D01*
X006598Y021899D01*
X006549Y021915D01*
X006500Y021935D01*
X006454Y021959D01*
X006410Y021986D01*
X006367Y022017D01*
X006327Y022050D01*
X006290Y022087D01*
X006256Y022126D01*
X006225Y022168D01*
X006196Y022212D01*
X006172Y022258D01*
X006151Y022305D01*
X006133Y022355D01*
X006120Y022405D01*
X006110Y022456D01*
X006104Y022508D01*
X006102Y022560D01*
M02*
