G75*
G70*
%OFA0B0*%
%FSLAX24Y24*%
%IPPOS*%
%LPD*%
%AMOC8*
5,1,8,0,0,1.08239X$1,22.5*
%
%ADD10R,0.0186X0.0671*%
%ADD11R,0.0671X0.0186*%
%ADD12C,0.0095*%
%ADD13R,0.0780X0.0780*%
%ADD14C,0.1080*%
%ADD15C,0.1458*%
%ADD16C,0.0640*%
%ADD17R,0.0474X0.0513*%
%ADD18R,0.0505X0.0493*%
%ADD19R,0.0493X0.0505*%
%ADD20C,0.0755*%
%ADD21C,0.0474*%
%ADD22C,0.0476*%
%ADD23OC8,0.0560*%
%ADD24R,0.0513X0.0474*%
%ADD25R,0.0671X0.0592*%
%ADD26OC8,0.0496*%
%ADD27R,0.0395X0.0671*%
%ADD28R,0.0533X0.0671*%
%ADD29R,0.0671X0.0533*%
%ADD30R,0.0631X0.0749*%
%ADD31R,0.0946X0.0316*%
%ADD32R,0.0643X0.0297*%
%ADD33C,0.0940*%
%ADD34R,0.0710X0.0789*%
%ADD35R,0.0840X0.1580*%
%ADD36OC8,0.0710*%
%ADD37R,0.2285X0.0907*%
%ADD38C,0.1340*%
%ADD39C,0.1010*%
%ADD40C,0.0605*%
%ADD41R,0.0592X0.0710*%
%ADD42OC8,0.0640*%
%ADD43R,0.0198X0.0316*%
D10*
X037929Y011509D03*
X038126Y011509D03*
X038323Y011509D03*
X038520Y011509D03*
X038717Y011509D03*
X038913Y011509D03*
X039110Y011509D03*
X039307Y011509D03*
X039504Y011509D03*
X039701Y011509D03*
X039898Y011509D03*
X040094Y011509D03*
X040291Y011509D03*
X040488Y011509D03*
X040685Y011509D03*
X040882Y011509D03*
X041079Y011509D03*
X041276Y011509D03*
X041472Y011509D03*
X041669Y011509D03*
X041866Y011509D03*
X042063Y011509D03*
X042260Y011509D03*
X042457Y011509D03*
X042654Y011509D03*
X042654Y017611D03*
X042457Y017611D03*
X042260Y017611D03*
X042063Y017611D03*
X041866Y017611D03*
X041669Y017611D03*
X041472Y017611D03*
X041276Y017611D03*
X041079Y017611D03*
X040882Y017611D03*
X040685Y017611D03*
X040488Y017611D03*
X040291Y017611D03*
X040094Y017611D03*
X039898Y017611D03*
X039701Y017611D03*
X039504Y017611D03*
X039307Y017611D03*
X039110Y017611D03*
X038913Y017611D03*
X038717Y017611D03*
X038520Y017611D03*
X038323Y017611D03*
X038126Y017611D03*
X037929Y017611D03*
D11*
X037240Y016922D03*
X037240Y016725D03*
X037240Y016529D03*
X037240Y016332D03*
X037240Y016135D03*
X037240Y015938D03*
X037240Y015741D03*
X037240Y015544D03*
X037240Y015347D03*
X037240Y015151D03*
X037240Y014954D03*
X037240Y014757D03*
X037240Y014560D03*
X037240Y014363D03*
X037240Y014166D03*
X037240Y013969D03*
X037240Y013773D03*
X037240Y013576D03*
X037240Y013379D03*
X037240Y013182D03*
X037240Y012985D03*
X037240Y012788D03*
X037240Y012591D03*
X037240Y012395D03*
X037240Y012198D03*
X043343Y012198D03*
X043343Y012395D03*
X043343Y012591D03*
X043343Y012788D03*
X043343Y012985D03*
X043343Y013182D03*
X043343Y013379D03*
X043343Y013576D03*
X043343Y013773D03*
X043343Y013969D03*
X043343Y014166D03*
X043343Y014363D03*
X043343Y014560D03*
X043343Y014757D03*
X043343Y014954D03*
X043343Y015151D03*
X043343Y015347D03*
X043343Y015544D03*
X043343Y015741D03*
X043343Y015938D03*
X043343Y016135D03*
X043343Y016332D03*
X043343Y016529D03*
X043343Y016725D03*
X043343Y016922D03*
D12*
X030729Y011504D02*
X030429Y011504D01*
X030429Y011600D01*
X030729Y011600D01*
X030729Y011504D01*
X030729Y011598D02*
X030429Y011598D01*
X030429Y011307D02*
X030729Y011307D01*
X030429Y011307D02*
X030429Y011403D01*
X030729Y011403D01*
X030729Y011307D01*
X030729Y011401D02*
X030429Y011401D01*
X030429Y011110D02*
X030729Y011110D01*
X030429Y011110D02*
X030429Y011206D01*
X030729Y011206D01*
X030729Y011110D01*
X030729Y011204D02*
X030429Y011204D01*
X030429Y010914D02*
X030729Y010914D01*
X030429Y010914D02*
X030429Y011010D01*
X030729Y011010D01*
X030729Y010914D01*
X030729Y011008D02*
X030429Y011008D01*
X030429Y010717D02*
X030729Y010717D01*
X030429Y010717D02*
X030429Y010813D01*
X030729Y010813D01*
X030729Y010717D01*
X030729Y010811D02*
X030429Y010811D01*
X030429Y010520D02*
X030729Y010520D01*
X030429Y010520D02*
X030429Y010616D01*
X030729Y010616D01*
X030729Y010520D01*
X030729Y010614D02*
X030429Y010614D01*
X030331Y010423D02*
X030331Y010123D01*
X030235Y010123D01*
X030235Y010423D01*
X030331Y010423D01*
X030331Y010217D02*
X030235Y010217D01*
X030235Y010311D02*
X030331Y010311D01*
X030331Y010405D02*
X030235Y010405D01*
X030135Y010423D02*
X030135Y010123D01*
X030039Y010123D01*
X030039Y010423D01*
X030135Y010423D01*
X030135Y010217D02*
X030039Y010217D01*
X030039Y010311D02*
X030135Y010311D01*
X030135Y010405D02*
X030039Y010405D01*
X029938Y010423D02*
X029938Y010123D01*
X029842Y010123D01*
X029842Y010423D01*
X029938Y010423D01*
X029938Y010217D02*
X029842Y010217D01*
X029842Y010311D02*
X029938Y010311D01*
X029938Y010405D02*
X029842Y010405D01*
X029741Y010423D02*
X029741Y010123D01*
X029645Y010123D01*
X029645Y010423D01*
X029741Y010423D01*
X029741Y010217D02*
X029645Y010217D01*
X029645Y010311D02*
X029741Y010311D01*
X029741Y010405D02*
X029645Y010405D01*
X029544Y010423D02*
X029544Y010123D01*
X029448Y010123D01*
X029448Y010423D01*
X029544Y010423D01*
X029544Y010217D02*
X029448Y010217D01*
X029448Y010311D02*
X029544Y010311D01*
X029544Y010405D02*
X029448Y010405D01*
X029347Y010423D02*
X029347Y010123D01*
X029251Y010123D01*
X029251Y010423D01*
X029347Y010423D01*
X029347Y010217D02*
X029251Y010217D01*
X029251Y010311D02*
X029347Y010311D01*
X029347Y010405D02*
X029251Y010405D01*
X029154Y010616D02*
X028854Y010616D01*
X029154Y010616D02*
X029154Y010520D01*
X028854Y010520D01*
X028854Y010616D01*
X028854Y010614D02*
X029154Y010614D01*
X029154Y010813D02*
X028854Y010813D01*
X029154Y010813D02*
X029154Y010717D01*
X028854Y010717D01*
X028854Y010813D01*
X028854Y010811D02*
X029154Y010811D01*
X029154Y011010D02*
X028854Y011010D01*
X029154Y011010D02*
X029154Y010914D01*
X028854Y010914D01*
X028854Y011010D01*
X028854Y011008D02*
X029154Y011008D01*
X029154Y011206D02*
X028854Y011206D01*
X029154Y011206D02*
X029154Y011110D01*
X028854Y011110D01*
X028854Y011206D01*
X028854Y011204D02*
X029154Y011204D01*
X029154Y011403D02*
X028854Y011403D01*
X029154Y011403D02*
X029154Y011307D01*
X028854Y011307D01*
X028854Y011403D01*
X028854Y011401D02*
X029154Y011401D01*
X029154Y011600D02*
X028854Y011600D01*
X029154Y011600D02*
X029154Y011504D01*
X028854Y011504D01*
X028854Y011600D01*
X028854Y011598D02*
X029154Y011598D01*
X029251Y011697D02*
X029251Y011997D01*
X029347Y011997D01*
X029347Y011697D01*
X029251Y011697D01*
X029251Y011791D02*
X029347Y011791D01*
X029347Y011885D02*
X029251Y011885D01*
X029251Y011979D02*
X029347Y011979D01*
X029448Y011997D02*
X029448Y011697D01*
X029448Y011997D02*
X029544Y011997D01*
X029544Y011697D01*
X029448Y011697D01*
X029448Y011791D02*
X029544Y011791D01*
X029544Y011885D02*
X029448Y011885D01*
X029448Y011979D02*
X029544Y011979D01*
X029645Y011997D02*
X029645Y011697D01*
X029645Y011997D02*
X029741Y011997D01*
X029741Y011697D01*
X029645Y011697D01*
X029645Y011791D02*
X029741Y011791D01*
X029741Y011885D02*
X029645Y011885D01*
X029645Y011979D02*
X029741Y011979D01*
X029842Y011997D02*
X029842Y011697D01*
X029842Y011997D02*
X029938Y011997D01*
X029938Y011697D01*
X029842Y011697D01*
X029842Y011791D02*
X029938Y011791D01*
X029938Y011885D02*
X029842Y011885D01*
X029842Y011979D02*
X029938Y011979D01*
X030039Y011997D02*
X030039Y011697D01*
X030039Y011997D02*
X030135Y011997D01*
X030135Y011697D01*
X030039Y011697D01*
X030039Y011791D02*
X030135Y011791D01*
X030135Y011885D02*
X030039Y011885D01*
X030039Y011979D02*
X030135Y011979D01*
X030235Y011997D02*
X030235Y011697D01*
X030235Y011997D02*
X030331Y011997D01*
X030331Y011697D01*
X030235Y011697D01*
X030235Y011791D02*
X030331Y011791D01*
X030331Y011885D02*
X030235Y011885D01*
X030235Y011979D02*
X030331Y011979D01*
D13*
X029791Y011060D03*
D14*
X023791Y007095D03*
X023791Y005619D03*
X023791Y004143D03*
X015524Y004143D03*
X015524Y007095D03*
X015524Y015560D03*
X023791Y015560D03*
D15*
X006791Y022560D03*
D16*
X006521Y017438D03*
X007769Y017506D03*
D17*
X007626Y016560D03*
X006957Y016560D03*
X008457Y016060D03*
X009126Y016060D03*
X007626Y018560D03*
X006957Y018560D03*
X027457Y013810D03*
X028126Y013810D03*
X028707Y013810D03*
X029376Y013810D03*
X029957Y013810D03*
X030626Y013810D03*
X031207Y013810D03*
X031876Y013810D03*
X031957Y010810D03*
X032626Y010810D03*
X042041Y020725D03*
X042041Y021395D03*
X044791Y021395D03*
X044791Y020725D03*
D18*
X044541Y017404D03*
X044541Y016716D03*
X044541Y013904D03*
X044541Y013216D03*
X038791Y019966D03*
X038791Y020654D03*
X022791Y022216D03*
X022791Y022904D03*
X011041Y016654D03*
X011041Y015966D03*
X010291Y015966D03*
X010291Y016654D03*
D19*
X009947Y021560D03*
X010636Y021560D03*
X011447Y021560D03*
X012136Y021560D03*
X015197Y023060D03*
X015886Y023060D03*
X027447Y014560D03*
X028136Y014560D03*
X028697Y014560D03*
X029386Y014560D03*
X029947Y014560D03*
X030636Y014560D03*
X031197Y014560D03*
X031886Y014560D03*
X038447Y010560D03*
X039136Y010560D03*
X041947Y010560D03*
X042636Y010560D03*
X032886Y010060D03*
X032197Y010060D03*
X028136Y003810D03*
X027447Y003810D03*
X026636Y003810D03*
X025947Y003810D03*
D20*
X021791Y018560D03*
X020791Y018560D03*
X017791Y018560D03*
X015791Y018560D03*
D21*
X034425Y004800D03*
X036157Y004800D03*
D22*
X037791Y003310D03*
X038291Y004060D03*
X039791Y005560D03*
X040909Y005560D03*
X038791Y006560D03*
X039791Y008060D03*
X038791Y008560D03*
X038791Y009904D03*
X037541Y010060D03*
X036041Y010310D03*
X035041Y011060D03*
X034541Y010060D03*
X033291Y010560D03*
X033541Y011560D03*
X033291Y012810D03*
X031791Y012810D03*
X031291Y012310D03*
X029791Y013060D03*
X027791Y012560D03*
X027291Y010560D03*
X028541Y010560D03*
X029791Y008810D03*
X031041Y010310D03*
X031541Y010310D03*
X035041Y012560D03*
X036291Y012810D03*
X036291Y012060D03*
X036791Y011560D03*
X039041Y012560D03*
X038291Y013060D03*
X038291Y013810D03*
X040291Y014560D03*
X041291Y014060D03*
X041791Y014310D03*
X042041Y014810D03*
X042541Y013310D03*
X044291Y014560D03*
X041791Y016810D03*
X041041Y016810D03*
X040291Y016810D03*
X039291Y016810D03*
X038791Y016560D03*
X038291Y016560D03*
X038041Y015310D03*
X035041Y015560D03*
X034291Y015310D03*
X033041Y015810D03*
X032041Y015060D03*
X029791Y015060D03*
X026791Y014560D03*
X023291Y017060D03*
X023791Y018560D03*
X022291Y019560D03*
X022291Y020560D03*
X022291Y021060D03*
X022291Y021560D03*
X022291Y022310D03*
X016791Y023060D03*
X016291Y022560D03*
X015291Y022060D03*
X014291Y021560D03*
X015791Y021060D03*
X016541Y019560D03*
X012791Y017060D03*
X011791Y016310D03*
X012291Y015560D03*
X013791Y014810D03*
X009791Y016310D03*
X008791Y014060D03*
X010291Y018810D03*
X011291Y018810D03*
X010791Y022560D03*
X026041Y017810D03*
X034291Y020560D03*
X035791Y019310D03*
X036791Y018560D03*
X038791Y019060D03*
X039791Y019125D03*
X039791Y018495D03*
X040541Y019060D03*
X041541Y019060D03*
X044291Y019560D03*
X040291Y022560D03*
X038791Y021560D03*
X037541Y021560D03*
X037291Y020060D03*
X034291Y014310D03*
X035041Y013560D03*
X040291Y012560D03*
X041291Y010810D03*
X042791Y009810D03*
X043291Y010060D03*
X044291Y010060D03*
X037041Y009060D03*
X040791Y003560D03*
X042791Y003560D03*
X026291Y008060D03*
X025291Y006810D03*
X025291Y004060D03*
X024791Y010560D03*
D23*
X013541Y009560D03*
X010791Y009560D03*
X010791Y011060D03*
X013541Y013560D03*
X006791Y011060D03*
X006791Y009560D03*
X006791Y008060D03*
X009791Y008060D03*
D24*
X032291Y011725D03*
X032291Y012395D03*
D25*
X028791Y020225D03*
X028791Y020895D03*
D26*
X035791Y021060D03*
X035791Y020560D03*
X036291Y020560D03*
X036291Y021060D03*
X036291Y021560D03*
X035791Y021560D03*
X035791Y022060D03*
X036291Y022060D03*
X036291Y020060D03*
X035791Y020060D03*
D27*
X040043Y004536D03*
X040476Y004536D03*
X040909Y004536D03*
X041343Y004536D03*
X041776Y004536D03*
X042209Y004536D03*
X042642Y004536D03*
X043075Y004536D03*
D28*
X043695Y007233D03*
D29*
X043469Y009093D03*
X040870Y009093D03*
X039965Y009093D03*
D30*
X038567Y003395D03*
X043606Y003395D03*
D31*
X028315Y004810D03*
X028315Y005310D03*
X028315Y005810D03*
X028315Y006310D03*
X026268Y006310D03*
X026268Y005810D03*
X026268Y005310D03*
X026268Y004810D03*
D32*
X021185Y019574D03*
X021185Y020070D03*
X021185Y020566D03*
X021185Y021062D03*
X021185Y021558D03*
X021185Y022054D03*
X021185Y022550D03*
X021185Y023046D03*
X017398Y023046D03*
X017398Y022550D03*
X017398Y022054D03*
X017398Y021558D03*
X017398Y021062D03*
X017398Y020566D03*
X017398Y020070D03*
X017398Y019574D03*
D33*
X008291Y004060D03*
X008291Y006029D03*
D34*
X043490Y018310D03*
X044593Y018310D03*
D35*
X024541Y008560D03*
X022041Y008560D03*
D36*
X011791Y007810D03*
X011791Y009810D03*
D37*
X012661Y020060D03*
X008921Y020060D03*
D38*
X026541Y020060D03*
X031041Y020060D03*
D39*
X031841Y018860D03*
X025741Y018860D03*
D40*
X027541Y017560D03*
X028541Y017560D03*
X029541Y017560D03*
X030541Y017560D03*
X030041Y016560D03*
X029041Y016560D03*
X028041Y016560D03*
X027041Y016560D03*
D41*
X042799Y020312D03*
X043783Y020312D03*
X043783Y021808D03*
X042799Y021808D03*
D42*
X031541Y003810D03*
X030541Y003810D03*
D43*
X032535Y013426D03*
X033047Y013426D03*
X033047Y014194D03*
X032791Y014194D03*
X032535Y014194D03*
M02*
