%!PS-Adobe-3.0 EPSF-3.0
%%Creator: GIMP PostScript file plugin V 1.17 by Peter Kirchgessner
%%Title: vykony.eps
%%CreationDate: Tue Mar 20 10:48:19 2012
%%DocumentData: Clean7Bit
%%LanguageLevel: 2
%%Pages: 1
%%BoundingBox: 14 14 355 285
%%EndComments
%%BeginProlog
% Use own dictionary to avoid conflicts
10 dict begin
%%EndProlog
%%Page: 1 1
% Translate for offset
14.173228346456694 14.173228346456694 translate
% Translate to begin of first scanline
0 270.42519685039372 translate
340.15748031496065 -270.42519685039372 scale
% Image geometry
800 636 8
% Transformation matrix
[ 800 0 0 636 0 0 ]
% Strings to hold RGB-samples per scanline
/rstr 800 string def
/gstr 800 string def
/bstr 800 string def
{currentfile /ASCII85Decode filter /RunLengthDecode filter rstr readstring pop}
{currentfile /ASCII85Decode filter /RunLengthDecode filter gstr readstring pop}
{currentfile /ASCII85Decode filter /RunLengthDecode filter bstr readstring pop}
true 3
%%BeginData:        65151 ASCII Bytes
colorimage
JcC<$JcC<$JcE[gr;`SlJ,~>
JcC<$JcC<$JcE[gr;`SlJ,~>
JcC<$JcC<$JcE[gr;`SlJ,~>
JcC<$JcC<$JcF!po)PQcJ,~>
JcC<$JcC<$JcF!po)PQcJ,~>
JcC<$JcC<$JcF!po)PQcJ,~>
JcC<$JcC<$JcF=$kl@OZJ,~>
JcC<$JcC<$JcF=$kl@OZJ,~>
JcC<$JcC<$JcF=$kl@OZJ,~>
JcC<$JcC<$JcFU,huKVRJ,~>
JcC<$JcC<$JcFU,huKVRJ,~>
JcC<$JcC<$JcFU,huKVRJ,~>
JcC<$JcC<$JcFp5ec;TIJ,~>
JcC<$JcC<$JcFp5ec;TIJ,~>
JcC<$JcC<$JcFp5ec;TIJ,~>
JcC<$JcC<$JcG'9dK$0EJ,~>
JcC<$JcC<$JcG'9dK$0EJ,~>
JcC<$JcC<$JcG'9dK$0EJ,~>
JcC<$JcC<$JcG*:ciC!DJ,~>
JcC<$JcC<$JcG*:ciC!DJ,~>
JcC<$JcC<$JcG*:ciC!DJ,~>
JcC<$JcC<$JcG*:ciC!DJ,~>
JcC<$JcC<$JcG*:ciC!DJ,~>
JcC<$JcC<$JcG*:ciC!DJ,~>
JcC<$JcC<$JcG*:i;i`Sp&M&kJ,~>
JcC<$JcC<$JcG*:i;i`Sp&M&kJ,~>
JcC<$JcC<$JcG*:i;i`Sp&M&kJ,~>
JcC<$JcC<$JcG-;klC;SoDkljJ,~>
JcC<$JcC<$JcG-;klC;SoDkljJ,~>
JcC<$JcC<$JcG-;klC;SoDkljJ,~>
JcC<$JcC<$JcG-;nGqkSoDkljJ,~>
JcC<$JcC<$JcG-;nGqkSoDkljJ,~>
JcC<$JcC<$JcG-;nGqkSoDkljJ,~>
JcC<$JcC<$JcG*:q#KLUnc5]iJ,~>
JcC<$JcC<$JcG*:q#KLUnc5]iJ,~>
JcC<$JcC<$JcG*:q#KLUnc5]iJ,~>
JcC<$JcC<$JcG*:q#KOVq#CEpq>dPqJ,~>
JcC<$JcC<$JcG*:q#KOVq#CEpq>dPqJ,~>
JcC<$JcC<$JcG*:q#KOVq#CEpq>dPqJ,~>
JcC<$JcC<$JcG'9q#KRWq>gQqq#IJqJ,~>
JcC<$JcC<$JcG'9q#KRWq>gQqq#IJqJ,~>
JcC<$JcC<$JcG'9q#KRWq>gQqq#IJqJ,~>
JcC<$JcC<$JcG$8q#KXYq#LEoq>dSrJ,~>
JcC<$JcC<$JcG$8q#KXYq#LEoq>dSrJ,~>
JcC<$JcC<$JcG$8q#KXYq#LEoq>dSrJ,~>
JcC<$JcC<$JcG!7q#K[Zq>gKoq#IMrJ,~>
JcC<$JcC<$JcG!7q#K[Zq>gKoq#IMrJ,~>
JcC<$JcC<$JcG!7q#K[Zq>gKoq#IMrJ,~>
JcC<$JcC<$JcG!7q#K^[q>gEmq>dVsJ,~>
JcC<$JcC<$JcG!7q#K^[q>gEmq>dVsJ,~>
JcC<$JcC<$JcG!7q#K^[q>gEmq>dVsJ,~>
JcC<$JcC<$JcFs6q#Kd]q#L<lq#IPsJ,~>
JcC<$JcC<$JcFs6q#Kd]q#L<lq#IPsJ,~>
JcC<$JcC<$JcFs6q#Kd]q#L<lq#IPsJ,~>
JcC<$JcC<$JcFp5q#Kg^q>g?kq#IStJ,~>
JcC<$JcC<$JcFp5q#Kg^q>g?kq#IStJ,~>
JcC<$JcC<$JcFp5q#Kg^q>g?kq#IStJ,~>
JcC<$JcC<$JcFm4q#Km`q#L6jq#IStJ,~>
JcC<$JcC<$JcFm4q#Km`q#L6jq#IStJ,~>
JcC<$JcC<$JcFm4q#Km`q#L6jq#IStJ,~>
JcC<$JcC<$JcFm4q#Kpaq#L0hq#IVuJ,~>
JcC<$JcC<$JcFm4q#Kpaq#L0hq#IVuJ,~>
JcC<$JcC<$JcFm4q#Kpaq#L0hq#IVuJ,~>
JcC<$JcC<$JcFj3q#Ksbq>g3gq>d`!J,~>
JcC<$JcC<$JcFj3q#Ksbq>g3gq>d`!J,~>
JcC<$JcC<$JcFj3q#Ksbq>g3gq>d`!J,~>
JcC<$JcC<$JcFg2q#L$dq#L*fq#IZ!J,~>
JcC<$JcC<$JcFg2q#L$dq#L*fq#IZ!J,~>
JcC<$JcC<$JcFg2q#L$dq#L*fq#IZ!J,~>
JcC<$JcC<$JcFd1q#L'eq>g-eq>dc"J,~>
JcC<$JcC<$JcFd1q#L'eq>g-eq>dc"J,~>
JcC<$JcC<$JcFd1q#L'eq>g-eq>dc"J,~>
JcC<$JcC<$JcFd1q#L*fq>g*dq#I]"J,~>
JcC<$JcC<$JcFd1q#L*fq>g*dq#I]"J,~>
JcC<$JcC<$JcFd1q#L*fq>g*dq#I]"J,~>
JcC<$JcC<$JcFa0q#L0hq#Ksbq>df#J,~>
JcC<$JcC<$JcFa0q#L0hq#Ksbq>df#J,~>
JcC<$JcC<$JcFa0q#L0hq#Ksbq>df#J,~>
JcC<$JcC<$JcFd1pAk!gq>g$bq#I`#J,~>
JcC<$JcC<$JcFd1pAk!gq>g$bq#I`#J,~>
JcC<$JcC<$JcFd1pAk!gq>g$bq#I`#J,~>
JcC<$JcC<$JcFg2o`4jgq#Km`q>di$J,~>
JcC<$JcC<$JcFg2o`4jgq#Km`q>di$J,~>
JcC<$JcC<$JcFg2o`4jgq#Km`q>di$J,~>
JcC<$JcC<$JcFj3oDndgq#Kj_q#Ic$J,~>
JcC<$JcC<$JcFj3oDndgq#Kj_q#Ic$J,~>
JcC<$JcC<$JcFj3oDndgq#Kj_q#Ic$J,~>
JcC<$JcC<$JcFp5nGrLeq>fm^q#If%J,~>
JcC<$JcC<$JcFp5nGrLeq>fm^q#If%J,~>
JcC<$JcC<$JcFp5nGrLeq>fm^q#If%J,~>
JcC<$JcC<$JcFs6mf<@eq#Kd]q#If%J,~>
JcC<$JcC<$JcFs6mf<@eq#Kd]q#If%J,~>
JcC<$JcC<$JcFs6mf<@eq#Kd]q#If%J,~>
JcC<$JcC<$JcG!7pAk6nq#LHpq>fg\q#Ii&J,~>
JcC<$JcC<$JcG!7pAk6nq#LHpq>fg\q#Ii&J,~>
JcC<$JcC<$JcG!7pAk6nq#LHpq>fg\q#Ii&J,~>
JcC<$JcC<$JcG'9p&P*lq#CEpq>faZq>dr'J,~>
JcC<$JcC<$JcG'9p&P*lq#CEpq>faZq>dr'J,~>
JcC<$JcC<$JcG'9p&P*lq#CEpq>faZq>dr'J,~>
JcC<$JcC<$JcG*:p&P$jnc7nRq#Il'J,~>
JcC<$JcC<$JcG*:p&P$jnc7nRq#Il'J,~>
JcC<$JcC<$JcG*:p&P$jnc7nRq#Il'J,~>
JcC<$JcC<$JcG-;pAk$hoDn%Rq>du(J,~>
JcC<$JcC<$JcG-;pAk$hoDn%Rq>du(J,~>
JcC<$JcC<$JcG-;pAk$hoDn%Rq>du(J,~>
JcC<$JcC<$JcG3=p&Ojeo`4.Sq#Io(J,~>
JcC<$JcC<$JcG3=p&Ojeo`4.Sq#Io(J,~>
JcC<$JcC<$JcG3=p&Ojeo`4.Sq#Io(J,~>
JcC<$JcC<$JcG6>p&Ogdp&O1Rq>e#)J,~>
JcC<$JcC<$JcG6>p&Ogdp&O1Rq>e#)J,~>
JcC<$JcC<$JcG6>p&Ogdp&O1Rq>e#)J,~>
JcC<$JcC<$JcG9?pAjgbp]0@Sq#Ir)J,~>
JcC<$JcC<$JcG9?pAjgbp]0@Sq#Ir)J,~>
JcC<$JcC<$JcG9?pAjgbp]0@Sq#Ir)J,~>
JcC<$JcC<$JcG<@pAja`q#KFSq#Iu*J,~>
JcC<$JcC<$JcG<@pAja`q#KFSq#Iu*J,~>
JcC<$JcC<$JcG<@pAja`q#KFSq#Iu*J,~>
JcC<$JcC<$JcGBBp&OU^l2^ASq#Iu*J,~>
JcC<$JcC<$JcGBBp&OU^l2^ASq#Iu*J,~>
JcC<$JcC<$JcGBBp&OU^l2^ASq#Iu*J,~>
JcC<$JcC<$JcGECpAj[^ciCZWJ,~>
JcC<$JcC<$JcGECpAj[^ciCZWJ,~>
JcC<$JcC<$JcGECpAj[^ciCZWJ,~>
JcC<$JcC<$JcGHDpAjX]ciCZWJ,~>
JcC<$JcC<$JcGHDpAjX]ciCZWJ,~>
JcC<$JcC<$JcGHDpAjX]ciCZWJ,~>
JcC<$JcC<$JcGNFp&OIZd/^cXJ,~>
JcC<$JcC<$JcGNFp&OIZd/^cXJ,~>
JcC<$JcC<$JcGNFp&OIZd/^cXJ,~>
JcC<$JcC<$JcGQGp&OFYd/^cXJ,~>
JcC<$JcC<$JcGQGp&OFYd/^cXJ,~>
JcC<$JcC<$JcGQGp&OFYd/^cXJ,~>
JcC<$JcC<$JcGTHpAjFWdf?rYJ,~>
JcC<$JcC<$JcGTHpAjFWdf?rYJ,~>
JcC<$JcC<$JcGTHpAjFWdf?rYJ,~>
JcC<$JcC<$JcGZJp&O:Ue,[#YJ,~>
JcC<$JcC<$JcGZJp&O:Ue,[#YJ,~>
JcC<$JcC<$JcGZJp&O:Ue,[#YJ,~>
JcC<$JcC<$JcG]Kp&NP@kQ&-mJ,~>
JcC<$JcC<$JcG]Kp&NP@kQ&-mJ,~>
JcC<$JcC<$JcG]Kp&NP@kQ&-mJ,~>
JcC<$JcC<$JcG`LpAiS?q>dDmJ,~>
JcC<$JcC<$JcG`LpAiS?q>dDmJ,~>
JcC<$JcC<$JcG`LpAiS?q>dDmJ,~>
JcC<$JcC<$JcGcMpAiP>q>dDmJ,~>
JcC<$JcC<$JcGcMpAiP>q>dDmJ,~>
JcC<$JcC<$JcGcMpAiP>q>dDmJ,~>
JcC<$JcC<$JcGEDcN!_@VZ2/~>
JcC<$JcC<$JcGEDcN!_@VZ2/~>
JcC<$JcC<$JcGEDcN!_@VZ2/~>
JcC<$JcC<$K)bQFbl@M>VZ2/~>
JcC<$JcC<$K)bQFbl@M>VZ2/~>
JcC<$JcC<$K)bQFbl@M>VZ2/~>
JcC<$JcC<$KE(ZGbQ%D=VZ2/~>
JcC<$JcC<$KE(ZGbQ%D=VZ2/~>
JcC<$JcC<$KE(ZGbQ%D=VZ2/~>
JcC<$JcC<$L&^iHb5_;<VZ2/~>
JcC<$JcC<$L&^iHb5_;<VZ2/~>
JcC<$JcC<$L&^iHb5_;<VZ2/~>
JcC<$JcC<$LB$rIaoD2;VZ2/~>
JcC<$JcC<$LB$rIaoD2;VZ2/~>
JcC<$JcC<$LB$rIaoD2;VZ2/~>
JcC<$JcC<$L]@)Ka8bu9VZ2/~>
JcC<$JcC<$L]@)Ka8bu9VZ2/~>
JcC<$JcC<$L]@)Ka8bu9VZ2/~>
JcC<$JcC<$M?!8L`rGl8VZ2/~>
JcC<$JcC<$M?!8L`rGl8VZ2/~>
JcC<$JcC<$M?!8L`rGl8VZ2/~>
JcC<$JcC<$MZ<AM`W,c7VZ2/~>
JcC<$JcC<$MZ<AM`W,c7VZ2/~>
JcC<$JcC<$MZ<AM`W,c7VZ2/~>
JcC<$JcC<$MuWMO_uKQ5VZ2/~>
JcC<$JcC<$MuWMO_uKQ5VZ2/~>
JcC<$JcC<$MuWMO_uKQ5VZ2/~>
JcC<$JcC<$N;rVP_Z0H4VZ2/~>
JcC<$JcC<$N;rVP_Z0H4VZ2/~>
JcC<$JcC<$N;rVP_Z0H4VZ2/~>
JcC<$JcC<$NrSeQ_>j?3VZ2/~>
JcC<$JcC<$NrSeQ_>j?3VZ2/~>
JcC<$JcC<$NrSeQ_>j?3VZ2/~>
JcC<$JcC<$O8nqS^]4-1VZ2/~>
JcC<$JcC<$O8nqS^]4-1VZ2/~>
JcC<$JcC<$O8nqS^]4-1VZ2/~>
JcC<$JcC<$OT5%T^An$0VZ2/~>
JcC<$JcC<$OT5%T^An$0VZ2/~>
JcC<$JcC<$OT5%T^An$0VZ2/~>
JcC<$JcC<$P5k4U^&Rp/VZ2/~>
JcC<$JcC<$P5k4U^&Rp/VZ2/~>
JcC<$JcC<$P5k4U^&Rp/VZ2/~>
JcC<$JcC<$PQ1=V]`7g.VZ2/~>
JcC<$JcC<$PQ1=V]`7g.VZ2/~>
JcC<$JcC<$PQ1=V]`7g.VZ2/~>
JcC<$JcC<$PlLIX])VU,VZ2/~>
JcC<$JcC<$PlLIX])VU,VZ2/~>
JcC<$JcC<$PlLIX])VU,VZ2/~>
JcC<$JcC<$QN-XY\c;L+VZ2/~>
JcC<$JcC<$QN-XY\c;L+VZ2/~>
JcC<$JcC<$QN-XY\c;L+VZ2/~>
JcC<$JcC<$QiHaZ\GuC*VZ2/~>
JcC<$JcC<$QiHaZ\GuC*VZ2/~>
JcC<$JcC<$QiHaZ\GuC*VZ2/~>
JcC<$JcC<$R/cm\[f?1(VZ2/~>
JcC<$JcC<$R/cm\[f?1(VZ2/~>
JcC<$JcC<$R/cm\[f?1(VZ2/~>
JcC<$JcC<$RK*!][K$('VZ2/~>
JcC<$JcC<$RK*!][K$('VZ2/~>
JcC<$JcC<$RK*!][K$('VZ2/~>
JcC<$JcC<$S,`0^[/]t&VZ2/~>
JcC<$JcC<$S,`0^[/]t&VZ2/~>
JcC<$JcC<$S,`0^[/]t&VZ2/~>
JcC<$JcC<$SH&<`ZN'b$VZ2/~>
JcC<$JcC<$SH&<`ZN'b$VZ2/~>
JcC<$JcC<$SH&<`ZN'b$VZ2/~>
JcC<$JcC<$ScAEaZ2aY#VZ2/~>
JcC<$JcC<$ScAEaZ2aY#VZ2/~>
JcC<$JcC<$ScAEaZ2aY#VZ2/~>
JcC<$JcC<$TE"TbYlFP"VZ2/~>
JcC<$JcC<$TE"TbYlFP"VZ2/~>
JcC<$JcC<$TE"TbYlFP"VZ2/~>
JcC<$JcC<$T`=]cYQ+G!VZ2/~>
JcC<$JcC<$T`=]cYQ+G!VZ2/~>
JcC<$JcC<$T`=]cYQ+G!VZ2/~>
JcC<$JcC<$U&XieXoJ4tVZ2/~>
JcC<$JcC<$U&XieXoJ4tVZ2/~>
JcC<$JcC<$U&XieXoJ4tVZ2/~>
JcC<$JcC<$U]:#fXT/+sVZ2/~>
JcC<$JcC<$U]:#fXT/+sVZ2/~>
JcC<$JcC<$U]:#fXT/+sVZ2/~>
JcC<$JcC<$V#U,gX8i"rVZ2/~>
JcC<$JcC<$V#U,gX8i"rVZ2/~>
JcC<$JcC<$V#U,gX8i"rVZ2/~>
JcC<$JcC<$V>p8iWW2epVZ2/~>
JcC<$JcC<$V>p8iWW2epVZ2/~>
JcC<$JcC<$V>p8iWW2epVZ2/~>
JcC<$JcC<$VZ6AjW;l\oVZ2/~>
JcC<$JcC<$VZ6AjW;l\oVZ2/~>
JcC<$JcC<$VZ6AjW;l\oVZ2/~>
JcC<$JcC<$W;lPkVuQSnVZ2/~>
JcC<$JcC<$W;lPkVuQSnVZ2/~>
JcC<$JcC<$W;lPkVuQSnVZ2/~>
JcC<$JcC<$WW2\mV>pAlVZ2/~>
JcC<$JcC<$WW2\mV>pAlVZ2/~>
JcC<$JcC<$WW2\mV>pAlVZ2/~>
JcC<$JcC<$WrMenV#U8kVZ2/~>
JcC<$JcC<$WrMenV#U8kVZ2/~>
JcC<$JcC<$WrMenV#U8kVZ2/~>
JcC<$JcC<$XT.toU]:/jVZ2/~>
JcC<$JcC<$XT.toU]:/jVZ2/~>
JcC<$JcC<$XT.toU]:/jVZ2/~>
JcC<$JcC<$XoJ(pUAt&iVZ2/~>
JcC<$JcC<$XoJ(pUAt&iVZ2/~>
JcC<$JcC<$XoJ(pUAt&iVZ2/~>
JcC<$JcC<$Y5e4rT`=igVZ2/~>
JcC<$JcC<$Y5e4rT`=igVZ2/~>
JcC<$JcC<$Y5e4rT`=igVZ2/~>
JcC<$JcC<$YlFCsTE"`fVZ2/~>
JcC<$JcC<$YlFCsTE"`fVZ2/~>
JcC<$JcC<$YlFCsTE"`fVZ2/~>
JcC<$JcC<$Z2aLtT)\WeVZ2/~>
JcC<$JcC<$Z2aLtT)\WeVZ2/~>
JcC<$JcC<$Z2aLtT)\WeVZ2/~>
JcC<$JcC<$ZN'Y!SH&EcVZ2/~>
JcC<$JcC<$ZN'Y!SH&EcVZ2/~>
JcC<$JcC<$ZN'Y!SH&EcVZ2/~>
JcC<$JcC<$ZiBb"S,`<bVZ2/~>
JcC<$JcC<$ZiBb"S,`<bVZ2/~>
JcC<$JcC<$ZiBb"S,`<bVZ2/~>
JcC<$JcC<$[K#q#RfE3aVZ2/~>
JcC<$JcC<$[K#q#RfE3aVZ2/~>
JcC<$JcC<$[K#q#RfE3aVZ2/~>
JcC<$JcC<$[f?(%R/d!_VZ2/~>
JcC<$JcC<$[f?(%R/d!_VZ2/~>
JcC<$JcC<$[f?(%R/d!_VZ2/~>
JcC<$JcC<$\,Z1&QiHm^VZ2/~>
JcC<$JcC<$\,Z1&QiHm^VZ2/~>
JcC<$JcC<$\,Z1&QiHm^VZ2/~>
JcC<$JcC<$\c;@'QN-d]VZ2/~>
JcC<$JcC<$\c;@'QN-d]VZ2/~>
JcC<$JcC<$\c;@'QN-d]VZ2/~>
JcC<$JcC<$])VI(Q2g[\VZ2/~>
JcC<$JcC<$])VI(Q2g[\VZ2/~>
JcC<$JcC<$])VI(Q2g[\VZ2/~>
JcC<$JcC<$]DqU*PQ1IZVZ2/~>
JcC<$JcC<$]DqU*PQ1IZVZ2/~>
JcC<$JcC<$]DqU*PQ1IZVZ2/~>
JcC<$JcC<$^&Rd+P5k@YVZ2/~>
JcC<$JcC<$^&Rd+P5k@YVZ2/~>
JcC<$JcC<$^&Rd+P5k@YVZ2/~>
JcC<$JcC<$^Amm,OoP7XVZ2/~>
JcC<$JcC<$^Amm,OoP7XVZ2/~>
JcC<$JcC<$^Amm,OoP7XVZ2/~>
JcC<$JcC<$^]4$.O8o%VVZ2/~>
JcC<$JcC<$^]4$.O8o%VVZ2/~>
JcC<$JcC<$^]4$.O8o%VVZ2/~>
JcC<$JcC<$_>j3/NrSqUVZ2/~>
JcC<$JcC<$_>j3/NrSqUVZ2/~>
JcC<$JcC<$_>j3/NrSqUVZ2/~>
JcC<$JcC<$_Z0<0NW8hTVZ2/~>
JcC<$JcC<$_Z0<0NW8hTVZ2/~>
JcC<$JcC<$_Z0<0NW8hTVZ2/~>
JcC<$JcC<$_uKH2MuWVRVZ2/~>
JcC<$JcC<$_uKH2MuWVRVZ2/~>
JcC<$JcC<$_uKH2MuWVRVZ2/~>
JcC<$JcC<$`;fQ3MZ<MQVZ2/~>
JcC<$JcC<$`;fQ3MZ<MQVZ2/~>
JcC<$JcC<$`;fQ3MZ<MQVZ2/~>
JcC<$JcC<$`rG`4M?!DPVZ2/~>
JcC<$JcC<$`rG`4M?!DPVZ2/~>
JcC<$JcC<$`rG`4M?!DPVZ2/~>
JcC<$JcC<$a8bl6L]@2NVZ2/~>
JcC<$JcC<$a8bl6L]@2NVZ2/~>
JcC<$JcC<$a8bl6L]@2NVZ2/~>
JcC<$JcC<$aT(u7LB%)MVZ2/~>
JcC<$JcC<$aT(u7LB%)MVZ2/~>
JcC<$JcC<$aT(u7LB%)MVZ2/~>
JcC<$JcC<$b5_/8L&^uLVZ2/~>
JcC<$JcC<$b5_/8L&^uLVZ2/~>
JcC<$JcC<$b5_/8L&^uLVZ2/~>
JcC<$JcC<$bQ%89K`ClKVZ2/~>
JcC<$JcC<$bQ%89K`ClKVZ2/~>
JcC<$JcC<$bQ%89K`ClKVZ2/~>
JcC<$JcC<$bl@D;K)bZIVZ2/~>
JcC<$JcC<$bl@D;K)bZIVZ2/~>
JcC<$JcC<$bl@D;K)bZIVZ2/~>
JcC<$JcC<$cN!S<JcGQHVZ2/~>
JcC<$JcC<$cN!S<JcGQHVZ2/~>
JcC<$JcC<$cN!S<JcGQHVZ2/~>
JcC<$JcC<$ci<\=Jc>`Mq>dDmJ,~>
JcC<$JcC<$ci<\=Jc>`Mq>dDmJ,~>
JcC<$JcC<$ci<\=Jc>`Mq>dDmJ,~>
JcC<$JcC<$d/Wh?JcG`Lq>dDmJ,~>
JcC<$JcC<$d/Wh?JcG`Lq>dDmJ,~>
JcC<$JcC<$d/Wh?JcG`Lq>dDmJ,~>
JcC<$JcC<$dJrq@JcG]Kq>dDmJ,~>
JcC<$JcC<$dJrq@JcG]Kq>dDmJ,~>
JcC<$JcC<$dJrq@JcG]Kq>dDmJ,~>
JcC<$JcC<$e,T+AJcGZJq>dDmJ,~>
JcC<$JcC<$e,T+AJcGZJq>dDmJ,~>
JcC<$JcC<$e,T+AJcGZJq>dDmJ,~>
JcC<$JcC<$eGo7CJcGTHq>dDmJ,~>
JcC<$JcC<$eGo7CJcGTHq>dDmJ,~>
JcC<$JcC<$eGo7CJcGTHq>dDmJ,~>
JcC<$JcC<$ec5@DJcGQGq>dDmJ,~>
JcC<$JcC<$ec5@DJcGQGq>dDmJ,~>
JcC<$JcC<$ec5@DJcGQGq>dDmJ,~>
JcC<$JcC<$fDkOEJcGNFq>dDmJ,~>
JcC<$JcC<$fDkOEJcGNFq>dDmJ,~>
JcC<$JcC<$fDkOEJcGNFq>dDmJ,~>
JcC<$JcC<$f`1XFJcGKEq>dDmJ,~>
JcC<$JcC<$f`1XFJcGKEq>dDmJ,~>
JcC<$JcC<$f`1XFJcGKEq>dDmJ,~>
JcC<$JcC<$g&LdHJcGECq>dDmJ,~>
JcC<$JcC<$g&LdHJcGECq>dDmJ,~>
JcC<$JcC<$g&LdHJcGECq>dDmJ,~>
JcC<$JcC<$g]-sIJcGBBq>dDmJ,~>
JcC<$JcC<$g]-sIJcGBBq>dDmJ,~>
JcC<$JcC<$g]-sIJcGBBq>dDmJ,~>
JcC<$JcC<$h#I'JJcG?Aq>dDmJ,~>
JcC<$JcC<$h#I'JJcG?Aq>dDmJ,~>
JcC<$JcC<$h#I'JJcG?Aq>dDmJ,~>
JcC<$JcC<$h>d3LJcG9?q>dDmJ,~>
JcC<$JcC<$h>d3LJcG9?q>dDmJ,~>
JcC<$JcC<$h>d3LJcG9?q>dDmJ,~>
JcC<$JcC<$hZ*<MJcG6>q>dDmJ,~>
JcC<$JcC<$hZ*<MJcG6>q>dDmJ,~>
JcC<$JcC<$hZ*<MJcG6>q>dDmJ,~>
JcC<$JcC<$i;`KNJcG3=q>dDmJ,~>
JcC<$JcC<$i;`KNJcG3=q>dDmJ,~>
JcC<$JcC<$i;`KNJcG3=q>dDmJ,~>
JcC<$JcC<$iW&WPJcG-;q>dDmJ,~>
JcC<$JcC<$iW&WPJcG-;q>dDmJ,~>
JcC<$JcC<$iW&WPJcG-;q>dDmJ,~>
JcC<$JcC<$irA`QJcG*:q>dDmJ,~>
JcC<$JcC<$irA`QJcG*:q>dDmJ,~>
JcC<$JcC<$irA`QJcG*:q>dDmJ,~>
JcC<$JcC<$jT"oRJcG'9q>dDmJ,~>
JcC<$JcC<$jT"oRJcG'9q>dDmJ,~>
JcC<$JcC<$jT"oRJcG'9q>dDmJ,~>
JcC<$JcC<$jo>#SJcG$8q>dDmJ,~>
JcC<$JcC<$jo>#SJcG$8q>dDmJ,~>
JcC<$JcC<$jo>#SJcG$8q>dDmJ,~>
JcC<$JcC<$k5Y/UJcFs6q>dDmJ,~>
JcC<$JcC<$k5Y/UJcFs6q>dDmJ,~>
JcC<$JcC<$k5Y/UJcFs6q>dDmJ,~>
JcC<$JcC<$kl:>VJcFp5q>dDmJ,~>
JcC<$JcC<$kl:>VJcFp5q>dDmJ,~>
JcC<$JcC<$kl:>VJcFp5q>dDmJ,~>
JcC<$JcC<$l2UGWJcFm4q>dDmJ,~>
JcC<$JcC<$l2UGWJcFm4q>dDmJ,~>
JcC<$JcC<$l2UGWJcFm4q>dDmJ,~>
JcC<$JcC<$lMpSYJcFg2q>dDmJ,~>
JcC<$JcC<$lMpSYJcFg2q>dDmJ,~>
JcC<$JcC<$lMpSYJcFg2q>dDmJ,~>
JcC<$JcC<$li6\ZJcFd1q>dDmJ,~>
JcC<$JcC<$li6\ZJcFd1q>dDmJ,~>
JcC<$JcC<$li6\ZJcFd1q>dDmJ,~>
JcC<$JcC<$mJlk[JcFa0q>dDmJ,~>
JcC<$JcC<$mJlk[JcFa0q>dDmJ,~>
JcC<$JcC<$mJlk[JcFa0q>dDmJ,~>
JcC<$JcC<$mf3"]JcF[.q>dDmJ,~>
JcC<$JcC<$mf3"]JcF[.q>dDmJ,~>
JcC<$JcC<$mf3"]JcF[.q>dDmJ,~>
JcC<$JcC<$n,N+^JcFX-q>dDmJ,~>
JcC<$JcC<$n,N+^JcFX-q>dDmJ,~>
JcC<$JcC<$n,N+^JcFX-q>dDmJ,~>
JcC<$JcC<$nc/:_JcFU,q>dDmJ,~>
JcC<$JcC<$nc/:_JcFU,q>dDmJ,~>
JcC<$JcC<$nc/:_JcFU,q>dDmJ,~>
JcC<$JcC<$o)JC`JcFR+q>dDmJ,~>
JcC<$JcC<$o)JC`JcFR+q>dDmJ,~>
JcC<$JcC<$o)JC`JcFR+q>dDmJ,~>
JcC<$JcC<$oDeObJcFL)q>dDmJ,~>
JcC<$JcC<$oDeObJcFL)q>dDmJ,~>
JcC<$JcC<$oDeObJcFL)q>dDmJ,~>
JcC<$JcC<$p&F^cJcFI(q>dDmJ,~>
JcC<$JcC<$p&F^cJcFI(q>dDmJ,~>
JcC<$JcC<$p&F^cJcFI(q>dDmJ,~>
JcC<$JcC<$pAagdJcFF'q>dDmJ,~>
JcC<$JcC<$pAagdJcFF'q>dDmJ,~>
JcC<$JcC<$pAagdJcFF'q>dDmJ,~>
JcC<$JcC<$p]'sfJcF@%q>dDmJ,~>
JcC<$JcC<$p]'sfJcF@%q>dDmJ,~>
JcC<$JcC<$p]'sfJcF@%q>dDmJ,~>
JcC<$JcC<$q#C'gJcF=$q>dDmJ,~>
JcC<$JcC<$q#C'gJcF=$q>dDmJ,~>
JcC<$JcC<$q#C'gJcF=$q>dDmJ,~>
JcC<$JcC<$qZ$6hJcF:#q>dDmJ,~>
JcC<$JcC<$qZ$6hJcF:#q>dDmJ,~>
JcC<$JcC<$qZ$6hJcF:#q>dDmJ,~>
JcC<$JcC<$qu?BjJcF4!q>dDmJ,~>
JcC<$JcC<$qu?BjJcF4!q>dDmJ,~>
JcC<$JcC<$qu?BjJcF4!q>dDmJ,~>
JcC<$JcC<$r;ZKkJcF0uq>dDmJ,~>
JcC<$JcC<$r;ZKkJcF0uq>dDmJ,~>
JcC<$JcC<$r;ZKkJcF0uq>dDmJ,~>
JcC<$JcC<$rr;ZlJcF-tq>dDmJ,~>
JcC<$JcC<$rr;ZlJcF-tq>dDmJ,~>
JcC<$JcC<$rr;ZlJcF-tq>dDmJ,~>
JcC<$JcC<$s8VcmJcF*sq>dDmJ,~>
JcC<$JcC<$s8VcmJcF*sq>dDmJ,~>
JcC<$JcC<$s8VcmJcF*sq>dDmJ,~>
JcC<$JcC<$!<;cnJcF$qq>dDmJ,~>
JcC<$JcC<$!<;cnJcF$qq>dDmJ,~>
JcC<$JcC<$!<;cnJcF$qq>dDmJ,~>
JcC<$JcC?%p&K[Dc2[V?VZ2/~>
JcC<$JcC?%p&K[Dc2[V?VZ2/~>
JcC<$JcC?%p&K[Dc2[V?VZ2/~>
JcC<$JcCB&p&K[Dbl@M>VZ2/~>
JcC<$JcCB&p&K[Dbl@M>VZ2/~>
JcC<$JcCB&p&K[Dbl@M>VZ2/~>
JcC<$JcCE'pAfdEb5_;<VZ2/~>
JcC<$JcCE'pAfdEb5_;<VZ2/~>
JcC<$JcCE'pAfdEb5_;<VZ2/~>
JcC<$JcCH(pAfdEaoD2;VZ2/~>
JcC<$JcCH(pAfdEaoD2;VZ2/~>
JcC<$JcCH(pAfdEaoD2;VZ2/~>
JcC<$JcCN*p&K[DaT)):VZ2/~>
JcC<$JcCN*p&K[DaT)):VZ2/~>
JcC<$JcCN*p&K[DaT)):VZ2/~>
JcC<$JcCQ+pAfdE`rGl8VZ2/~>
JcC<$JcCQ+pAfdE`rGl8VZ2/~>
JcC<$JcCQ+pAfdE`rGl8VZ2/~>
JcC<$JcCT,pAfdE`W,c7VZ2/~>
JcC<$JcCT,pAfdE`W,c7VZ2/~>
JcC<$JcCT,pAfdE`W,c7VZ2/~>
JcC<$JcCZ.p&K[D`;fZ6VZ2/~>
JcC<$JcCZ.p&K[D`;fZ6VZ2/~>
JcC<$JcCZ.p&K[D`;fZ6VZ2/~>
JcC<$JcC]/p&K[D_uKQ5VZ2/~>
JcC<$JcC]/p&K[D_uKQ5VZ2/~>
JcC<$JcC]/p&K[D_uKQ5VZ2/~>
JcC<$JcC`0pAfdE_>j?3VZ2/~>
JcC<$JcC`0pAfdE_>j?3VZ2/~>
JcC<$JcC`0pAfdE_>j?3VZ2/~>
JcC<$JcCf2p&K[D_#O62VZ2/~>
JcC<$JcCf2p&K[D_#O62VZ2/~>
JcC<$JcCf2p&K[D_#O62VZ2/~>
JcC<$JcCi3p&K[D^]4-1VZ2/~>
JcC<$JcCi3p&K[D^]4-1VZ2/~>
JcC<$JcCi3p&K[D^]4-1VZ2/~>
JcC<$JcCl4pAfdE^&Rp/VZ2/~>
JcC<$JcCl4pAfdE^&Rp/VZ2/~>
JcC<$JcCl4pAfdE^&Rp/VZ2/~>
JcC<$JcCr6p&K[D]`7g.VZ2/~>
JcC<$JcCr6p&K[D]`7g.VZ2/~>
JcC<$JcCr6p&K[D]`7g.VZ2/~>
JcC<$JcCu7p&K[D]Dq^-VZ2/~>
JcC<$JcCu7p&K[D]Dq^-VZ2/~>
JcC<$JcCu7p&K[D]Dq^-VZ2/~>
JcC<$JcD#8pAfdE\c;L+VZ2/~>
JcC<$JcD#8pAfdE\c;L+VZ2/~>
JcC<$JcD#8pAfdE\c;L+VZ2/~>
JcC<$JcD&9pAfdE\GuC*VZ2/~>
JcC<$JcD&9pAfdE\GuC*VZ2/~>
JcC<$JcD&9pAfdE\GuC*VZ2/~>
JcC<$JcD,;p&K[D\,Z:)VZ2/~>
JcC<$JcD,;p&K[D\,Z:)VZ2/~>
JcC<$JcD,;p&K[D\,Z:)VZ2/~>
JcC<$JcD/<pAfdE[K$('VZ2/~>
JcC<$JcD/<pAfdE[K$('VZ2/~>
JcC<$JcD/<pAfdE[K$('VZ2/~>
JcC<$JcD2=pAfdE[/]t&VZ2/~>
JcC<$JcD2=pAfdE[/]t&VZ2/~>
JcC<$JcD2=pAfdE[/]t&VZ2/~>
JcC<$JcD8?p&K[DZiBk%VZ2/~>
JcC<$JcD8?p&K[DZiBk%VZ2/~>
JcC<$JcD8?p&K[DZiBk%VZ2/~>
JcC<$JcD;@p&K[DZN'b$VZ2/~>
JcC<$JcD;@p&K[DZN'b$VZ2/~>
JcC<$JcD;@p&K[DZN'b$VZ2/~>
JcC<$JcD>ApAfdEYlFP"VZ2/~>
JcC<$JcD>ApAfdEYlFP"VZ2/~>
JcC<$JcD>ApAfdEYlFP"VZ2/~>
JcC<$JcDDCp&K[DYQ+G!VZ2/~>
JcC<$JcDDCp&K[DYQ+G!VZ2/~>
JcC<$JcDDCp&K[DYQ+G!VZ2/~>
JcC<$JcDGDp&K[DY5e=uVZ2/~>
JcC<$JcDGDp&K[DY5e=uVZ2/~>
JcC<$JcDGDp&K[DY5e=uVZ2/~>
JcC<$JcDJEpAfdEXT/+sVZ2/~>
JcC<$JcDJEpAfdEXT/+sVZ2/~>
JcC<$JcDJEpAfdEXT/+sVZ2/~>
JcC<$JcDMFpAfdEX8i"rVZ2/~>
JcC<$JcDMFpAfdEX8i"rVZ2/~>
JcC<$JcDMFpAfdEX8i"rVZ2/~>
JcC<$JcDSHp&K[DWrMnqVZ2/~>
JcC<$JcDSHp&K[DWrMnqVZ2/~>
JcC<$JcDSHp&K[DWrMnqVZ2/~>
JcC<$JcDVIpAfdEW;l\oVZ2/~>
JcC<$JcDVIpAfdEW;l\oVZ2/~>
JcC<$JcDVIpAfdEW;l\oVZ2/~>
JcC<$ZN'_#!8I>L!k&*`MZ<DNJcDYJq>dDmJ,~>
JcC<$Zi:$6q>^LVq#:A,3f3n2!.k0Js7u_ms*t~>
JcC<$Zi:#;q>^MWq#:?pOGX#3!.k0Js7u_ms*t~>
JcC<$[Jp4foDem"r;Qh[!8EJ4p&K[DVZ6JmVZ2/~>
JcC<$[f6?^o)S[fs#Q)<p&K[DVZ6JmVZ2/~>
JcC<$[f6>hoDel'r;QiQ!0E-=p&K[DVZ6JmVZ2/~>
JcC<$\,QGiqu?`Or;Qc*qu?q_s8UgR!8EM5p&K[DV>pAlVZ2/~>
JcC<$\,QFhr;ZgYqu6Y.qu?oTs8S/\3fO+4!.k0Hs7u_ms*t~>
JcC<$\GlQ`qu?_Yqu?Qo!':,Z!]g=CN;rSOJcDSHq>dDmJ,~>
JcC<$\GlP@r;ZiPp\t4Sq#CELNrShRJcDMFq>dDmJ,~>
JcC<$\GuL-!'9lS!8I;L!'6,>pAfdEU]:/jVZ2/~>
JcC<$\c2Z<r;ZhZp\t5Tq#CDVNW8_QJcDMFq>dDmJ,~>
JcC<$\c2Xjr;cKi!8I>M!8EV8p&K[DUAt&iVZ2/~>
JcC<$])Mcbr;Zh0o`"oQqZ$UWO8nnRJcDJEq>dDmJ,~>
JcC<$])Mblr;Zi+o`"nPqZ$VXO8nnRJcDJEq>dDmJ,~>
JcC<$])MbBr;ZiPo)JRe!8EY9p&K[DU&XrhVZ2/~>
JcC<$])V^/!'9]N!4Me*!'65Ap&K[DU&XrhVZ2/~>
JcC<$]Dhl>r;ZhZo)A]%qu?_YOT5"SJcDGDq>dDmJ,~>
JcC<$]Dhl>r;ZhZnGiCd!8E\:pAfdETE"`fVZ2/~>
JcC<$]DhkCr;ZiPnc&Ttr;ZgYOoP.UJcDABq>dDmJ,~>
JcC<$]Dqg0!'9WL!+u00!0E?CpAfdETE"`fVZ2/~>
JcC<$]Dhjlr;c<d!4Mh+!8E_;pAfdET)\WeVZ2/~>
JcC<$]`.udr;Zh0n,EB"rVupZP5k7VJcD>Aq>dDmJ,~>
JcC<$]`.tnr;Zi+n,N=d!0EBDpAfdET)\WeVZ2/~>
JcC<$]`.u?r;ZgYmf*9!rVurQQ2gOXJcD;@q>dDmJ,~>
JcC<$]`.tDr;ZhZmf37d!'6AEp&K[DScANdVZ2/~>
JcC<$]`7m0!8HuB!4Mk,!0EHFp&K[DScANdVZ2/~>
JcC<$]`.tDr;Zh0mf*:ArVurQQN-[ZJcD5>q>dDmJ,~>
JcC<$]`7m0!4M=q"-<K_3gKa>!.k0>s7u_ms*t~>
JcC<$^&J)@quH-a"$-D^OHok?!.k0>s7u_ms*t~>
JcC<$]`.smr;Zh0mJd9#!!(c?s7ZMEs-iua!2fdH~>
JcC<$^&J)equ?`*mJm1d!'6GGpAfdERfE3aVZ2/~>
JcC<$^&J(oquH-a"1A10OI#q@!.k0=s7u_ms*t~>
JcC<$]`7m0!'9NI"1A10gR8*8!.k0<s7u_ms*t~>
JcC<$^&J)@qu?_YmJd6"!'6MIp&K[DRK**`VZ2/~>
JcC<$^&J(Equ?`OmJm1d!0ETJp&K[DRK**`VZ2/~>
JcC<$^&J)eqZ$WNmJm1d!8EtBp&K[DR/d!_VZ2/~>
JcC<$^&J(oqu?^XmJd6r!'6PJp&K[DR/d!_VZ2/~>
JcC<$^&J'nqu?_YmJd6"!0EWKp&K[DR/d!_VZ2/~>
JcC<$^&J)eqZ$V.mJd5K!8F"CpAfdEQN-d]VZ2/~>
JcC<$^&J(oqZ$W)mf*@C!'6SKpAfdEQN-d]VZ2/~>
JcC<$^&J'nqZ-$`!g!DDRfE*^JcD&9q>dDmJ,~>
JcC<$]`7g.!4M=q!g!E:ScAB`JcD#8q>dDmJ,~>
JcC<$^&J)@q>fp_s#Q\Mp&K[DQ2g[\VZ2/~>
JcC<$^&J(EqZ$V.mf*@C!0E`Np&K[DQ2g[\VZ2/~>
JcC<$]`.smq>^N(n,EHt!8F+Fp&K[DPlLR[VZ2/~>
JcC<$^&J)eq#Kj_!G4B`s7QGDs-3Q[!2fdH~>
JcC<$^&J(oq>^M-mf*:fOIcFF!.k07s7u_ms*t~>
JcC<$]`.tDq#CDVnG`RE!8F.GpAfdEP5k@YVZ2/~>
JcC<$]`7a,!8I#C!K]@6s7ZMEs-!EY!2fdH~>
JcC<$^&J)@q#CCUn,EDLOIlLH!.k05s7u_ms*t~>
JcC<$]`.udp](:TNW8_QJcCl4q>dDmJ,~>
JcC<$]`.tnp](;UNW8_QJcCl4q>dDmJ,~>
JcC<$]`.smp](<KNW8_QJcCl4q>dDmJ,~>
JcC<$]DhkCpAb3%OoP+TJcCi3q>dDmJ,~>
JcC<$]DqR)OT5"SJcCi3q>dDmJ,~>
JcC<$]`.u?pAb2*OT5"SJcCi3q>dDmJ,~>
JcC<$]Dhlcp&G(RPQ1@WJcCc1q>dDmJ,~>
JcC<$]Dhkmp&G)SPQ1@WJcCc1q>dDmJ,~>
JcC<$]Dhjlp&G*IPQ1@WJcCc1q>dDmJ,~>
JcC<$])Mc=o`+uRQN-[ZJcC`0q>dDmJ,~>
JcC<$])MbBo`,!HQN-[ZJcC`0q>dDmJ,~>
JcC<$])VF'!'6DFpAfdENW8hTVZ2/~>
JcC<$\c2YkoDemGRfE']JcC]/q>dDmJ,~>
JcC<$\c2Xjo`+tQRK)s\JcC]/q>dDmJ,~>
JcC<$])McboDelQRK)s\JcC]/q>dDmJ,~>
JcC<$\GlQ;o)P<\p&K[DMuWVRVZ2/~>
JcC<$\GlP@oDel'SH&9_JcCZ.q>dDmJ,~>
JcC<$\Gu.#!4JEtp&K[DMuWVRVZ2/~>
JcC<$\,QH_o)Jc&TE"WcJcCT,q>dDmJ,~>
JcC<$\,QGio)Jd!TE"WcJcCT,q>dDmJ,~>
JcC<$\,QFho)PB^pAfdEM?!DPVZ2/~>
JcC<$[Jp5=o)Jd!U]:#fJcCQ+q>dDmJ,~>
JcC<$[K#dtUAsoeJcCQ+q>dDmJ,~>
JcC<$[f6?9o)Jc&UAsoeJcCQ+q>dDmJ,~>
JcC<$[/U-\nc5Ndp&K[DL]@2NVZ2/~>
JcC<$[/U,fo)Jc&V>p5hJcCN*q>dDmJ,~>
JcC<$[/U+eo)Jd!V>p5hJcCN*q>dDmJ,~>
JcC<$ZMso:o)JcPW;lSlJcCH(q>dDmJ,~>
JcC<$ZN'Iq!8FIPpAfdEL&^uLVZ2/~>
JcC<$Zi:$6o)JbOVuQJkJcCH(q>dDmJ,~>
JcC<$YlF:p!'7.[pAfdEK`ClKVZ2/~>
JcC<$Z2Xg4o)JcPWrMenJcCE'q>dDmJ,~>
JcC<$Z2Xf9o)JdFWrMenJcCE'q>dDmJ,~>
JcC<$YQ"U2o)Pomp&K[DKE(cJVZ2/~>
JcC<$YQ"T7oDel'XoJ(pJcCB&q>dDmJ,~>
JcC<$YQ+1o!4K$0p&K[DKE(cJVZ2/~>
JcC<$XoAB5oDl)ppAfdEJcGQHVZ2/~>
JcC<$XoJ"n!+rG7pAfdEJcGQHVZ2/~>
JcC<$Y5\L1oDem"YQ+=sJcC<$q>dDmJ,~>
JcC<$X8hhm!'7CbpAfdEJc>`Mq>dDmJ,~>
JcC<$XT&:/o`+uRZ2aOuJcC<$!<;lqVZ2/~>
JcC<$XT&94o`,!HZ2aOuJcC<$!<;lqVZ2/~>
JcC<$WrE(-p&G)S[/]h"JcC<$s8VoqVZ2/~>
JcC<$WrE'2p&G*I[/]h"JcC<$s8VoqVZ2/~>
JcC<$WrMbm!'7Idp&K[DJcGcMq>dDmJ,~>
JcC<$W;ciYpAhW$p&K[DJcG`Lq>dDmJ,~>
JcC<$WW)tQpAb2*[K#q#JcC<$rr;fpVZ2/~>
JcC<$WW)s[pAb3%[K#q#JcC<$rr;fpVZ2/~>
JcC<$VuHb*p](;U\,Z1&JcC<$r;ZTnVZ2/~>
JcC<$VuHa/p](<K\,Z1&JcC<$r;ZTnVZ2/~>
JcC<$VuQMl!'7RgpAfdEJcGZJq>dDmJ,~>
JcC<$VZ-YNq#CCU\c;@'JcC<$qu?KmVZ2/~>
JcC<$VZ-XXq#CDV\c;@'JcC<$qu?KmVZ2/~>
JcC<$VZ-WWq#CEL\c;@'JcC<$qu?KmVZ2/~>
JcC<$]`/"E3pckH[eTn'gUmLZ!.k0$s8)cl!2fdH~>
JcC<$]`/!4OR2uIB)2K-3kG@b!.k0$s8)cl!2fdH~>
JcC<$^&J/B!8Hl?q#CDV])VI(JcC<$qZ$BlVZ2/~>
JcC<$]`/"E!:0XbOSSqW[_2Y7!.k0$s7lWj!2fdH~>
JcC<$]`/!4B']Hs3r/igs7ZMEs+14Fs7u_ms*t~>
JcC<$^&J/B!4M7o!8I>M!+rkCpAfdEJcGNFq>dDmJ,~>
JcC<$]`/%F!8Hi>q>^N(^Amm,JcC<$p]('iVZ2/~>
JcC<$]`/!43pZeG[e^!;s7QGDs+14Es7u_ms*t~>
JcC<$^&J/B!0HOH!+u*.!+rqEp&K[DJcGKEq>dDmJ,~>
JcC<$]`/%F!0HOH!0I'X!4KZBp&K[DJcGHDq>dDmJ,~>
JcC<$]`8!3!8Hi>!'9uW^Amm,JcC<$pAashVZ2/~>
JcC<$^&J/B!'9HG!8IAN!+rtFp&K[DJcGHDq>dDmJ,~>
JcC<$]`/%F!+tQs!4Mb)!4K]CpAfdEJcGBBq>dDmJ,~>
JcC<$]`8!3!4M4n!+u*.^]4$.JcC<$o`+afVZ2/~>
JcC<$^&J/B!!)<aqZ$V.^]4$.JcC<$o`+afVZ2/~>
JcC<$]`/%F!!)?b!8IAN!8G?ipAfdEJcG?Aq>dDmJ,~>
JcC<$]`8!3!+tQs!0I*Y!'7pqpAfdEJcG?Aq>dDmJ,~>
JcC<$^&J2C!!'Inrr>+X!!&+rs7ZMEs+14As7u_ms*t~>
JcC<$]`/(G!!'Ins8)f5s7QGDs+14@s7u_ms*t~>
JcC<$]`7s2li-snqu?_/_Z0<0JcC<$o)JOdVZ2/~>
JcC<$^&J2C!!$Wsrr?[/!!'IEs7QGDs+14@s7u_ms*t~>
JcC<$]`/(G!!#(HrrCgO!!$WKs7ZMEs+14>s7u_ms*t~>
JcC<$]`7s2!0HRI!0I*Y!4KfFpAfdEJcG6>q>dDmJ,~>
JcC<$^&J)@rVurQm/I&HquFV6pAfdEJcG6>q>dDmJ,~>
JcC<$]`.tDrVur,mJd0pqu?`*`;fQ3JcC<$n,N4aVZ2/~>
JcC<$]`7p1m/I&tquFY7pAfdEJcG3=q>dDmJ,~>
JcC<$^&J)@rVuq1m/Qt`!+s.KpAfdEJcG3=q>dDmJ,~>
JcC<$]`.tDr;c6b!+u00!'8+!p&K[DJcG0<q>dDmJ,~>
JcC<$]`7p1!+tWuqu?_Y`W,W3JcC<$mf3+`VZ2/~>
JcC<$^&J)@r;Zi+mf*9qqu?`O`W,W3JcC<$mf3+`VZ2/~>
JcC<$]`.tDr;Zh0n,ECBqu?`O`rG`4JcC<$mJm"_VZ2/~>
JcC<$]`7m0!4M@r!0I-Z!'8+!p&K[DJcG-;q>dDmJ,~>
JcC<$^&J)@quH0b!':&Y!0G2"p&K[DJcG-;q>dDmJ,~>
JcC<$]`.tDqu?^XnG`JLr;Zi+`rGc5JcC<$li6e]VZ2/~>
JcC<$]`7j/!0HaN!8IDO`W,Z4JcC<$li6e]VZ2/~>
JcC<$^&J)@qZ$WNnc&TNr;Zh0`W,Z4JcC<$li6e]VZ2/~>
JcC<$]`.tDq>g*d!+u00!0G8$p&K[DJcG$8q>dDmJ,~>
JcC<$]`7g.!+tg%qu?`Oa8bi5JcC<$lMp\\VZ2/~>
JcC<$^&J)@q>^N(oD\g!r;ZgY`rG`4JcC<$lMp\\VZ2/~>
JcC<$]`.tDq#CCUp&Fpi!0G8$p&K[DJcG!7q>dDmJ,~>
JcC<$]`7a,!0HpS!4Me*!8GQop&K[DJcG!7q>dDmJ,~>
JcC<$^&J)@p](<KpAY,)r;ZgY`rG`4JcC<$l2US[VZ2/~>
JcC<$]`/%F!+u61!':#X!4Me)!8IAN!8GQopAfdEJcFp5q>dDmJ,~>
JcC<$]`8!3"1J70g\V!IrrA/Y!!#("s7ZMEs+145s7u_ms*t~>
JcC<$^&J/B!!*#u!0I*Y!+u*-!':#X!0G5#pAfdEJcFp5q>dDmJ,~>
JcC<$]`/"E!;c]q3qE=O[`8@A!.k0$s5s@X!2fdH~>
JcC<$]`/!4B)DT.g[Y?`s7ZMEs+144s7u_ms*t~>
JcC<$^&J/B!4Me)!0HdP!+s4MpAfdEJcFm4q>dDmJ,~>
JcC<$]`/"E3qrXSB))E,ON%7n!.k0$s5j:W!2fdH~>
JcC<$]`/!4OSAeM!!(cms7QGDs+143s7u_ms*t~>
JcC<$^&J/B!8I;K!4M\'!'8'up&K[DJcFj3q>dDmJ,~>
JcC<$JcG'9pAfdEJcFd1q>dDmJ,~>
JcC<$JcG'9pAfdEJcFd1q>dDmJ,~>
JcC<$JcG'9pAfdEJcFd1q>dDmJ,~>
JcC<$JcG*:pAfdEJcFa0q>dDmJ,~>
JcC<$JcG*:pAfdEJcFa0q>dDmJ,~>
JcC<$JcG*:pAfdEJcFa0q>dDmJ,~>
JcC<$JcG0<p&K[DJcF^/q>dDmJ,~>
JcC<$JcG0<p&K[DJcF^/q>dDmJ,~>
JcC<$JcG0<p&K[DJcF^/q>dDmJ,~>
JcC<$JcG3=p&K[DJcF[.q>dDmJ,~>
JcC<$JcG3=p&K[DJcF[.q>dDmJ,~>
JcC<$JcG3=p&K[DJcF[.q>dDmJ,~>
JcC<$JcG6>pAfdEJcFU,q>dDmJ,~>
JcC<$JcG6>pAfdEJcFU,q>dDmJ,~>
JcC<$JcG6>pAfdEJcFU,q>dDmJ,~>
JcC<$JcG<@p&K[DJcFR+q>dDmJ,~>
JcC<$JcG<@p&K[DJcFR+q>dDmJ,~>
JcC<$JcG<@p&K[DJcFR+q>dDmJ,~>
JcC<$JcG?Ap&K[DJcFO*q>dDmJ,~>
JcC<$JcG?Ap&K[DJcFO*q>dDmJ,~>
JcC<$JcG?Ap&K[DJcFO*q>dDmJ,~>
JcC<$JcGBBpAfdEJcFI(q>dDmJ,~>
JcC<$JcGBBpAfdEJcFI(q>dDmJ,~>
JcC<$JcGBBpAfdEJcFI(q>dDmJ,~>
JcC<$JcGECpAfdEJcFF'q>dDmJ,~>
JcC<$JcGECpAfdEJcFF'q>dDmJ,~>
JcC<$JcGECpAfdEJcFF'q>dDmJ,~>
JcC<$JcGKEp&K[DJcFC&q>dDmJ,~>
JcC<$JcGKEp&K[DJcFC&q>dDmJ,~>
JcC<$JcGKEp&K[DJcFC&q>dDmJ,~>
JcC<$JcGNFpAfdEJcF=$q>dDmJ,~>
JcC<$JcGNFpAfdEJcF=$q>dDmJ,~>
JcC<$JcGNFpAfdEJcF=$q>dDmJ,~>
JcC<$JcGQGpAfdEJcF:#q>dDmJ,~>
JcC<$JcGQGpAfdEJcF:#q>dDmJ,~>
JcC<$JcGQGpAfdEJcF:#q>dDmJ,~>
JcC<$JcGWIp&K[DJcF7"q>dDmJ,~>
JcC<$JcGWIp&K[DJcF7"q>dDmJ,~>
JcC<$JcGWIp&K[DJcF7"q>dDmJ,~>
JcC<$JcGZJp&K[DJcF4!q>dDmJ,~>
JcC<$JcGZJp&K[DJcF4!q>dDmJ,~>
JcC<$JcGZJp&K[DJcF4!q>dDmJ,~>
JcC<$JcG]KpAfdEJcF-tq>dDmJ,~>
JcC<$JcG]KpAfdEJcF-tq>dDmJ,~>
JcC<$JcG]KpAfdEJcF-tq>dDmJ,~>
JcC<$JcGcMp&K[DJcF*sq>dDmJ,~>
JcC<$JcGcMp&K[DJcF*sq>dDmJ,~>
JcC<$JcGcMp&K[DJcF*sq>dDmJ,~>
JcC<$Jc>`Mp&K[DJcF'rq>dDmJ,~>
JcC<$Jc>`Mp&K[DJcF'rq>dDmJ,~>
JcC<$Jc>`Mp&K[DJcF'rq>dDmJ,~>
JcC<$JcGHEJcC<$c2[V?VZ2/~>
JcC<$JcGHEJcC<$c2[V?VZ2/~>
JcC<$JcGHEJcC<$c2[V?VZ2/~>
JcC<$K)bQFJcC<$bl@M>VZ2/~>
JcC<$K)bQFJcC<$bl@M>VZ2/~>
JcC<$K)bQFJcC<$bl@M>VZ2/~>
JcC<$K`C`GJcC<$bQ%D=VZ2/~>
JcC<$K`C`GJcC<$bQ%D=VZ2/~>
JcC<$K`C`GJcC<$bQ%D=VZ2/~>
JcC<$L&^lIJcC<$aoD2;VZ2/~>
JcC<$L&^lIJcC<$aoD2;VZ2/~>
JcC<$L&^lIJcC<$aoD2;VZ2/~>
JcC<$LB$uJJcC<$aT)):bl7Z(p]0FUJ,~>
JcC<$LB$uJJcC<$aT)):c2Rdup](;+jo9i~>
JcC<$LB$uJJcC<$aT)):c2Rd*p](<&jo9i~>
JcC<$M#[/KJcC<$a8bu9d/O*SnGiQtl2Q8~>
JcC<$M#[/KJcC<$a8bu9d/O)XnGqeQJ,~>
JcC<$M#[/KJcC<$a8bu9d/WV9!+tHpJ,~>
JcC<$M?!8LJcC<$`rGl8df0;Zqu?^XqYpPWqZ$VXli2J~>
JcC<$M?!8LJcC<$`rGl8df91E!0I'W!'9uW!8Hi>J,~>
JcC<$M?!8LJcC<$`rGl8e,KEVqZ$WNqu6ZNqZ$UWlMlA~>
JcC<$MZ<DNJcC<$`;fZ6eGfNWqu?`*p&Fmh!8Ho@J,~>
JcC<$MZ<DNJcC<$`;fZ6eGfM\quHEi!4Me*!'9KHJ,~>
JcC<$MZ<DNJcC<$`;fZ6eGoFH!+tp(!+u-/!0HRIJ,~>
JcC<$N;rSOJcC<$_uKQ5ec,V1r;Zh0o)A]uqu?_Ymf.e~>
JcC<$N;rSOJcC<$_uKQ5f)Ga)qu?`*o)A]%qu?`Omf.e~>
JcC<$N;rSOJcC<$_uKQ5f)G`3quH9equ?^XmJh\~>
JcC<$NW8\PJcC<$_Z0H4f)PXJ!0H[Lqu?^Xn,In~>
JcC<$NW8\PJcC<$_Z0H4fDbiZqu?`OnG`Ksqu?_Yn,In~>
JcC<$NW8\PJcC<$_Z0H4fDbh_r;ZgYn,EB"qu?`On,In~>
JcC<$NrShRJcC<$_#O62f`(s+qu?_Ymf*:Aqu?^XnGe"~>
JcC<$NrShRJcC<$_#O62f`(r5qu?`Omf*9Kqu?_YnGe"~>
JcC<$NrShRJcC<$_#O62f`(q4r;ZgYmJd/Iqu?`OnGe"~>
JcC<$O8nqSJcC<$^]4-1g&D',qu?_/m/I'oqu?^Xnc++~>
JcC<$O8nqSJcC<$^]4-1g&D&6qu?`*m/I&tqu?_Ync++~>
JcC<$O8nqSJcC<$^]4-1g&D%5quH'_qZ$WNnc++~>
JcC<$OoP+TJcC<$^An$0g&LpLlMgirqu?^Xo)F4~>
JcC<$OoP+TJcC<$^An$0gA_/]qu?_/lMp_]!0HdOJ,~>
JcC<$OoP+TJcC<$^An$0gA_.bqu?`*li-snqZ$WNo)F4~>
JcC<$P5k7VJcC<$]`7g.gA_.6qu?_Yl2UV\!+tj&J,~>
JcC<$P5k7VJcC<$]`7g.g]%9.qZ$WNlMgjmqZ$W)oDa=~>
JcC<$P5k7VJcC<$]`7g.g]%88qu?^Xl2L`qqZ-3eJ,~>
JcC<$PQ1@WJcC<$]Dq^-g]%7cqZ,j[!0I'X!4MP"J,~>
JcC<$PQ1@WJcC<$]Dq^-g].-N!+tHp!'9uWoDa=~>
JcC<$PQ1@WJcC<$]Dq^-h#@A_qZ$W)l2Lb<qZ$V.oDa=~>
JcC<$Q2gOXJcC<$])VU,h#@B/qZ$VXkl1Y;q>g0fJ,~>
JcC<$Q2gOXJcC<$])VU,h#@A9qZ$WNkl1XEqZ$V.o`'F~>
JcC<$Q2gOXJcC<$])VU,h#@@8qu?^XkPkNCqZ$W)o`'F~>
JcC<$QN-XYJcC<$\c;L+h#@@8qZ$WNkPkNoqZ$VXp&BO~>
JcC<$QN-XYJcC<$\c;L+h>[K0qZ$UWk5Y8X!8I2HJ,~>
JcC<$QN-XYJcC<$\c;L+h>[J:qZ$VXkPkOjqZ$UWo`'F~>
JcC<$QiHd[JcC<$\,Z:)h>[J`qZ$UWk5PFiq>g3gJ,~>
JcC<$QiHd[JcC<$\,Z:)h>[IeqZ$VXk5PEnqZ$V.p&BO~>
JcC<$QiHd[JcC<$\,Z:)h>d<O!8HZ9q>^N(p&BO~>
JcC<$RK)s\JcC<$[f?1(h>[I9qZ$VXjo>/W!0HpSJ,~>
JcC<$RK)s\JcC<$[f?1(hZ!T1q>^NMk5PFiq>^NMpA]X~>
JcC<$RK)s\JcC<$[f?1(hZ!S;qZ$UWjo5<mqZ$UWp&BO~>
JcC<$RfE']JcC<$[K$('hZ!T1q>^N(jo5<Aq>g6hJ,~>
JcC<$RfE']JcC<$[K$('hZ!S;q>fXW!8I>M!+ts)J,~>
JcC<$RfE']JcC<$[K$('hZ!R:qZ$V.jo5=Bq>^N(pA]X~>
JcC<$S,`3_JcC<$ZiBk%hZ!Rfq>fUV!0I$W!4MY%J,~>
JcC<$S,`3_JcC<$ZiBk%hZ*EP!+t<l!'9rVpA]X~>
JcC<$S,`3_JcC<$ZiBk%hu<\bq>^N(jo5>8q>^M-pA]X~>
JcC<$SH&<`JcC<$ZN'b$hZ*EP!'93@!4M_(!+u!*J,~>
JcC<$SH&<`JcC<$ZN'b$hu<\bq>^MWjSo3lq>^N(p]#a~>
JcC<$SH&<`JcC<$ZN'b$hu<[gq>^NMjT##UpA]X~>
JcC<$T)\KaJcC<$Z2aY#hu<]2q>^M-jSo57q>^LVp]#a~>
JcC<$T)\KaJcC<$Z2aY#hu<\<q>^N(jSo4Aq>^MWp]#a~>
JcC<$T)\KaJcC<$Z2aY#hu<[;q>fRU!'9rV!8I8JJ,~>
JcC<$TE"WcJcC<$YQ+G!hu<\<q>^MWj8\oT!8I;KJ,~>
JcC<$TE"WcJcC<$YQ+G!hu<[;q>^NMjSo4gq>^LVp]#a~>
JcC<$TE"WcJcC<$YQ+G!i;Wf3q>^LVj8T*kq>^MWp]#a~>
JcC<$T`=`dJcC<$Y5e=uhu<[gq>^MWj8T*?q>^N(q#>j~>
JcC<$T`=`dJcC<$Y5e=uhuEKP!8HT7!8I;Lp]#a~>
JcC<$T`=`dJcC<$Y5e=ui;Wecq>^LVj8T+@q>^M-p]#a~>
JcC<$UAsoeJcC<$XoJ4thu<[;q>^N(j8T*?q>^MWq#>j~>
JcC<$UAsoeJcC<$XoJ4ti;Wf3q#KIT!8I;L!8I;KJ,~>
JcC<$UAsoeJcC<$XoJ4ti;We=q>^M-j8T+@q>^LVp]#a~>
JcC<$U]:#fJcC<$XT/+shu<[;q>^N(j8T*kq>^MWq#>j~>
JcC<$U]:#fJcC<$XT/+si;Wf3q#KFSq#CELq#>j~>
JcC<$U]:#fJcC<$XT/+si;We=q>^M-j8T+fq>^LVp]#a~>
JcC<$V#U/hJcC<$WrMnqhuEKP!4Lqf!+u'-!+u$+J,~>
JcC<$V#U/hJcC<$WrMnqi;Wecq#KFSq#CE'q#>j~>
JcC<$V#U/hJcC<$WrMnqi;Wdhq>^M-j8T+fq#L0hJ,~>
JcC<$VZ6>iJcC<$WW2ephuEKP!4Lqf!+u'-!+u$+J,~>
JcC<$VZ6>iJcC<$WW2epi;Wecq#KFSq#CE'q#>j~>
JcC<$VZ6>iJcC<$WW2epi;Wdhq>^M-j8T+fq#L0hJ,~>
JcC<$VuQGjJcC<$W;l\ohuEKP!4Lqf!+u'-!+u$+J,~>
JcC<$VuQGjJcC<$W;l\oi;Wecq#KFSq#CE'q#>j~>
JcC<$VuQGjJcC<$W;l\oi;Wdhq>^M-j8T+fq#L0hJ,~>
JcC<$W;lSlJcC<$VZ6JmhuEKP!4Lqf!+u'-!+u$+J,~>
JcC<$W;lSlJcC<$VZ6Jmi;Wecq#KFSq#CE'q#>j~>
JcC<$W;lSlJcC<$VZ6Jmi;Wdhq>^M-j8T+fq#L0hJ,~>
JcC<$WrMbmJcC<$V>pAlhuEKP!4Lqf!+u'-!+u$+J,~>
JcC<$WrMbmJcC<$V>pAli;Wecq#KFSq#CE'q#>j~>
JcC<$WrMbmJcC<$V>pAli;Wdhq>^M-j8T+fq#L0hJ,~>
JcC<$X8hknJcC<$V#U8khuEKP!4Lqf!+u'-!+u$+J,~>
JcC<$X8hknJcC<$V#U8ki;Wecq#KFSq#CE'q#>j~>
JcC<$X8hknJcC<$V#U8ki;Wdhq>^M-j8T+fq#L0hJ,~>
JcC<$XT/"pJcC<$UAt&ihu<[;q>^MWj8T*kq>^MWq#>j~>
JcC<$XT/"pJcC<$UAt&ii;Wf3q#CELj8\oT!8I;KJ,~>
JcC<$XT/"pJcC<$UAt&ii;We=q>^LVj8T+fq>^LVp]#a~>
JcC<$XoJ+qJcC<$U&Xrhhu<[gq>^MWj8T*?q>^N(q#>j~>
JcC<$XoJ+qJcC<$U&XrhhuEKP!8HT7!8I;Lp]#a~>
JcC<$XoJ+qJcC<$U&Xrhi;Wecq>^LVj8T+@q>^M-p]#a~>
JcC<$YQ+:rJcC<$T`=ighu<\<q>^M-j8T*?q>^NMq#>j~>
JcC<$YQ+:rJcC<$T`=ighu<[;q>^N(jSo57q>^LVp]#a~>
JcC<$YQ+:rJcC<$T`=igi;Wf3q#KIT!0I$W!0HsTJ,~>
JcC<$YlFFtJcC<$T)\Wehu<\bq>^LVj8\oTp]#a~>
JcC<$YlFFtJcC<$T)\Wehu<[gq>^MWjSo4gq>^M-p]#a~>
JcC<$YlFFtJcC<$T)\WehuEKP!8HT7!+u'-!4MY%J,~>
JcC<$Z2aOuJcC<$ScANdhu<]2q#KLU!8I>M!+u!*J,~>
JcC<$Z2aOuJcC<$ScANdhu<\<q>^M-jSo4Aq>^N(p]#a~>
JcC<$Z2aOuJcC<$ScANdhu<[;q>^N(jSo3@q>g6hJ,~>
JcC<$ZiB_!JcC<$SH&EchZ!R:q>^NMjo5=hq>^N(p]#a~>
JcC<$ZiB_!JcC<$SH&Echu<]2q>^LVjSo3lq>g6hJ,~>
JcC<$ZiB_!JcC<$SH&Echu<\<q>^MWjT#&V!+ts)J,~>
JcC<$[/]h"JcC<$S,`<bhZ!S;q>^MWjo5=Bq>g6hJ,~>
JcC<$[/]h"JcC<$S,`<bhZ!R:q>^NMjo5<AqZ$V.pA]X~>
JcC<$[/]h"JcC<$S,`<bhu<]2q>^LVjo5>8q>^N(pA]X~>
JcC<$[K#t$JcC<$RK**`hZ!T1q>^M-jo5<AqZ$V.pA]X~>
JcC<$[K#t$JcC<$RK**`hZ!S;q>^N(k5PG9q>^N(pA]X~>
JcC<$[K#t$JcC<$RK**`hZ!R:q>fXW!0I$Wp&BO~>
JcC<$\,Z.%JcC<$R/d!_h>[I9q>f[X!8I>M!8I5IJ,~>
JcC<$\,Z.%JcC<$R/d!_hZ!T1q>^M-k5PFCqZ$UWp&BO~>
JcC<$\,Z.%JcC<$R/d!_hZ!S;q>^N(k5PEBqZ$VXp&BO~>
JcC<$\Gu7&JcC<$QiHm^h>[J`q>^N(kPkODqZ$V.p&BO~>
JcC<$\Gu7&JcC<$QiHm^h>[Ieq>f[X!'9uW!4MS#J,~>
JcC<$\Gu7&JcC<$QiHm^h>d<O!+tEo!8I>Mo`'F~>
JcC<$\c;C(JcC<$Q2g[\h#@@8qZ$UWkPkNCqZ$WNp&BO~>
JcC<$\c;C(JcC<$Q2g[\h>[K0q>^MWkl1Y;qZ$UWo`'F~>
JcC<$\c;C(JcC<$Q2g[\h>[J:q>^NMkl1XEqZ$VXo`'F~>
JcC<$])VL)JcC<$PlLR[h#@B/q>^NMl2LalqZ$VXo`'F~>
JcC<$])VL)JcC<$PlLR[h#@A9qZ$UWkl1WpqZ$WNo`'F~>
JcC<$])VL)JcC<$PlLR[h#@@8qZ$VXkl:M[!'9`OJ,~>
JcC<$]`7[*JcC<$PQ1IZg]%88qZ$V.l2L`Equ?^XoDa=~>
JcC<$]`7[*JcC<$PQ1IZg]%77qZ$W)lMgk=qZ$VXoDa=~>
JcC<$]`7[*JcC<$PQ1IZh#@B/q>fd[!0I'X!8I,FJ,~>
JcC<$^&Rg,JcC<$OoP7XgA_.6qZ$W)li-snqZ$WNoDa=~>
JcC<$^&Rg,JcC<$OoP7Xg]%9.q>fg\!+u-/!'9]NJ,~>
JcC<$^&Rg,JcC<$OoP7Xg]%88qZ$V.lMp_]!0HdOJ,~>
JcC<$^Amp-JcC<$OT5.Wg&LmKm/I(?qZ$W)o)F4~>
JcC<$^Amp-JcC<$OT5.WgA_/]qZ$V.m/I'IqZ-0dJ,~>
JcC<$^Amp-JcC<$OT5.WgA_.bqZ$W)m/I&Hqu?_/nc++~>
JcC<$_#O*.JcC<$O8o%Vf`1gK!'9NI!':#X!0HaNJ,~>
JcC<$_#O*.JcC<$O8o%Vg&D&\qZ$VXmf*:AqZ$WNnc++~>
JcC<$_#O*.JcC<$O8o%Vg&D%aqZ$WNmf*9Kqu?^XnGe"~>
JcC<$_>j3/JcC<$NrSqUfDk^J!+t^"!':#X!0H^MJ,~>
JcC<$_>j3/JcC<$NrSqUf`(r[qZ$W)nG`LCqZ$WNnGe"~>
JcC<$_>j3/JcC<$NrSqUf`(q`qZ-*b!0I*Y!'9TKJ,~>
JcC<$_Z0?1JcC<$N;r_Sf)G_2qu?^Xo)A^EqZ$W)n,In~>
JcC<$_Z0?1JcC<$N;r_SfDbj*qZ$VXo)A]OqZ-'aJ,~>
JcC<$_Z0?1JcC<$N;r_SfDbi4qZ$WNo)A\Nqu?_/mf.e~>
JcC<$`;fN2JcC<$MuWVRec,W2qZ$VXp&>#(qZ-$`J,~>
JcC<$`;fN2JcC<$MuWVRec,V1qZ$WNp&Fmh!+tWuJ,~>
JcC<$`;fN2JcC<$MuWVRf)Ga)qZ$UWp&>$#qZ$W)mJh\~>
JcC<$`W,W3JcC<$MZ<MQe,KD/q>gBl!4M_(!0HRIJ,~>
JcC<$`W,W3JcC<$MZ<MQeGfO'q>^M-qYpP-q>^NMm/MS~>
JcC<$`W,W3JcC<$MZ<MQeGfN1q>^N(qZ$Bl!'9HGJ,~>
JcC<$`rGc5JcC<$M#[;OdJrV7!+tNrJ,~>
JcC<$`rGc5JcC<$M#[;Odf0<UmJm6qlMlA~>
JcC<$`rGc5JcC<$M#[;Odf0;ZmJuMOJ,~>
JcC<$a8bl6JcC<$L]@2Nci3u+o)Jd!kl6/~>
JcC<$a8bl6JcC<$L]@2Nd/O+#nc7kQJ,~>
JcC<$a8bl6JcC<$L]@2Nd/O*-o)Jc&kPp&~>
JcC<$aoD&7JcC<$LB%)Mc2[G:!8H]:J,~>
JcC<$aoD&7JcC<$LB%)McMmmQp&G(Rk5Tr~>
JcC<$aoD&7JcC<$LB%)McMmlVp&G)Sk5Tr~>
JcC<$b5_29JcC<$K`ClKbl@A:!'9<CJ,~>
JcC<$b5_29JcC<$K`ClKc2RdPp&G)SkPp&~>
JcC<$b5_29JcC<$K`ClKc2RcUp&G*IkPp&~>
JcC<$bQ%;:JcC<$KE(cJbPqQ'pAb2Tkl6/~>
JcC<$bQ%;:JcC<$KE(cJbl7[tp&G*Ikl6/~>
JcC<$bQ%;:JcC<$KE(cJbl7[)pAb1SkPp&~>
JcC<$c2[J;JcC<$K)bZIb5VHRpAb3Jl2Q8~>
JcC<$c2[J;JcC<$K)bZIb5_29!'9?DJ,~>
JcC<$c2[J;JcC<$K)bZIbPqRNpAb2Tkl6/~>
JcC<$cN!S<JcC<$JcGQHao;@Lp](:Tl2Q8~>
JcC<$cN!S<JcC<$JcGQHao;?Qp](;Ul2Q8~>
JcC<$cN!S<JcC<$JcGQHaoD)8!8Hc<J,~>
JcC<$ci<_>JcC<$JcGcMq>eS9p](;+lMlA~>
JcC<$ci<_>JcC<$JcGcMq>eV:!4MY&!4M1mJ,~>
JcC<$ci<_>JcC<$JcGcMq>eV:!+u!+l2Q8~>
JcC<$dJrn?JcC<$JcG`Lq>eP8!0I!V!0HOHJ,~>
JcC<$dJrn?JcC<$JcG`Lq>eP8!'9oU!8Hi>J,~>
JcC<$dJrn?JcC<$JcG`Lq>eS9!8I;L!'9EFJ,~>
JcC<$df9"@JcC<$JcG]Kq>eJ6q#CE'm/MS~>
JcC<$df9"@JcC<$JcG]Kq>eM7!4M\'li2J~>
JcC<$df9"@JcC<$JcG]Kq>eM7!+u'-!+tQsJ,~>
JcC<$e,T.BJcC<$JcGWIq>eG5!8I>M!0HUJJ,~>
JcC<$e,T.BJcC<$JcGWIq>eG5!0I$W!8Ho@J,~>
JcC<$e,T.BJcC<$JcGWIq>eG5!'9uW!'9KHJ,~>
JcC<$eGo7CJcC<$JcGTHq>eA3!4Mb)!+t[!J,~>
JcC<$eGo7CJcC<$JcGTHq>eA3!+u*.!4M=qJ,~>
JcC<$eGo7CJcC<$JcGTHq>eA3q>fp_J,~>
JcC<$f)PFDJcC<$JcGQGq>e;1!8IAN!4MCsJ,~>
JcC<$f)PFDJcC<$JcGQGq>e;1!0I'Xn,In~>
JcC<$f)PFDJcC<$JcGQGq>e;1!':#X!+t^"J,~>
JcC<$fDkRFJcC<$JcGKEq>e2.!+u-/!8I)EJ,~>
JcC<$fDkRFJcC<$JcGKEq>e2.qu?^Xnc++~>
JcC<$fDkRFJcC<$JcGKEq>e5/!4Me*!0HaNJ,~>
JcC<$f`1[GJcC<$JcGHDq>e)+!0I*Y!8I2HJ,~>
JcC<$f`1[GJcC<$JcGHDq>e)+!':&Y!'9cPJ,~>
JcC<$f`1[GJcC<$JcGHDq>e,,!8IDO!0HjQJ,~>
JcC<$gAgjHJcC<$JcGECq>dr'!8IGP!4M\&J,~>
JcC<$gAgjHJcC<$JcGECq>dr'!0I-Zp]#a~>
JcC<$gAgjHJcC<$JcGECq>dr'!':)Z!+u!*J,~>
JcC<$g]-sIJcC<$JcGBBq>dDmJ,~>
JcC<$g]-sIJcC<$JcGBBq>dDmJ,~>
JcC<$g]-sIJcC<$JcGBBq>dDmJ,~>
JcC<$h#I*KJcC<$JcG<@q>dDmJ,~>
JcC<$h#I*KJcC<$JcG<@q>dDmJ,~>
JcC<$h#I*KJcC<$JcG<@q>dDmJ,~>
JcC<$hZ*9LJcC<$JcG9?q>dDmJ,~>
JcC<$hZ*9LJcC<$JcG9?q>dDmJ,~>
JcC<$hZ*9LJcC<$JcG9?q>dDmJ,~>
JcC<$huEBMJcC<$JcG6>q>dDmJ,~>
JcC<$huEBMJcC<$JcG6>q>dDmJ,~>
JcC<$huEBMJcC<$JcG6>q>dDmJ,~>
JcC<$i;`NOJcC<$JcG0<q>dDmJ,~>
JcC<$i;`NOJcC<$JcG0<q>dDmJ,~>
JcC<$i;`NOJcC<$JcG0<q>dDmJ,~>
JcC<$iW&WPJcC<$JcG-;q>dDmJ,~>
JcC<$iW&WPJcC<$JcG-;q>dDmJ,~>
JcC<$iW&WPJcC<$JcG-;q>dDmJ,~>
JcC<$j8\fQJcC<$JcG*:q>dDmJ,~>
JcC<$j8\fQJcC<$JcG*:q>dDmJ,~>
JcC<$j8\fQJcC<$JcG*:q>dDmJ,~>
JcC<$jT"rSJcC<$JcG$8q>dDmJ,~>
JcC<$jT"rSJcC<$JcG$8q>dDmJ,~>
JcC<$jT"rSJcC<$JcG$8q>dDmJ,~>
JcC<$jo>&TJcC<$JcG!7q>dDmJ,~>
JcC<$jo>&TJcC<$JcG!7q>dDmJ,~>
JcC<$jo>&TJcC<$JcG!7q>dDmJ,~>
JcC<$kPt5UJcC<$JcFs6q>dDmJ,~>
JcC<$kPt5UJcC<$JcFs6q>dDmJ,~>
JcC<$kPt5UJcC<$JcFs6q>dDmJ,~>
JcC<$kl:>VJcC<$JcFp5q>dDmJ,~>
JcC<$kl:>VJcC<$JcFp5q>dDmJ,~>
JcC<$kl:>VJcC<$JcFp5q>dDmJ,~>
JcC<$l2UJXJcC<$JcFj3q>dDmJ,~>
JcC<$l2UJXJcC<$JcFj3q>dDmJ,~>
JcC<$l2UJXJcC<$JcFj3q>dDmJ,~>
JcC<$li6YYJcC<$JcFg2q>dDmJ,~>
JcC<$li6YYJcC<$JcFg2q>dDmJ,~>
JcC<$li6YYJcC<$JcFg2q>dDmJ,~>
JcC<$m/QbZJcC<$JcFd1q>dDmJ,~>
JcC<$m/QbZJcC<$JcFd1q>dDmJ,~>
JcC<$m/QbZJcC<$JcFd1q>dDmJ,~>
JcC<$mJln\JcC<$JcF^/q>dDmJ,~>
JcC<$mJln\JcC<$JcF^/q>dDmJ,~>
JcC<$mJln\JcC<$JcF^/q>dDmJ,~>
JcC<$mf3"]JcC<$JcF[.q>dDmJ,~>
JcC<$mf3"]JcC<$JcF[.q>dDmJ,~>
JcC<$mf3"]JcC<$JcF[.q>dDmJ,~>
JcC<$nGi1^JcC<$JcFX-q>dDmJ,~>
JcC<$nGi1^JcC<$JcFX-q>dDmJ,~>
JcC<$nGi1^JcC<$JcFX-q>dDmJ,~>
JcC<$nc/=`JcC<$JcFR+q>dDmJ,~>
JcC<$nc/=`JcC<$JcFR+q>dDmJ,~>
JcC<$nc/=`JcC<$JcFR+q>dDmJ,~>
JcC<$o)JFaJcC<$JcFO*q>dDmJ,~>
JcC<$o)JFaJcC<$JcFO*q>dDmJ,~>
JcC<$o)JFaJcC<$JcFO*q>dDmJ,~>
JcC<$o`+UbJcC<$JcFL)q>dDmJ,~>
JcC<$o`+UbJcC<$JcFL)q>dDmJ,~>
JcC<$o`+UbJcC<$JcFL)q>dDmJ,~>
JcC<$p&F^cJcC<$JcFI(q>dDmJ,~>
JcC<$p&F^cJcC<$JcFI(q>dDmJ,~>
JcC<$p&F^cJcC<$JcFI(q>dDmJ,~>
JcC<$pAajeJcC<$JcFC&q>dDmJ,~>
JcC<$pAajeJcC<$JcFC&q>dDmJ,~>
JcC<$pAajeJcC<$JcFC&q>dDmJ,~>
JcC<$q#C$fJcC<$JcF@%q>dDmJ,~>
JcC<$q#C$fJcC<$JcF@%q>dDmJ,~>
JcC<$q#C$fJcC<$JcF@%q>dDmJ,~>
JcC<$q>^-gJcC<$JcF=$q>dDmJ,~>
JcC<$q>^-gJcC<$JcF=$q>dDmJ,~>
JcC<$q>^-gJcC<$JcF=$q>dDmJ,~>
JcC<$qZ$9iJcC<$JcF7"q>dDmJ,~>
JcC<$qZ$9iJcC<$JcF7"q>dDmJ,~>
JcC<$qZ$9iJcC<$JcF7"q>dDmJ,~>
JcC<$r;ZHjJcC<$JcF4!q>dDmJ,~>
JcC<$r;ZHjJcC<$JcF4!q>dDmJ,~>
JcC<$r;ZHjJcC<$JcF4!q>dDmJ,~>
JcC<$rVuQkJcC<$JcF0uq>dDmJ,~>
JcC<$rVuQkJcC<$JcF0uq>dDmJ,~>
JcC<$rVuQkJcC<$JcF0uq>dDmJ,~>
JcC<$rr;]mJcC<$JcF*sq>dDmJ,~>
JcC<$rr;]mJcC<$JcF*sq>dDmJ,~>
JcC<$rr;]mJcC<$JcF*sq>dDmJ,~>
JcC<$s8VfnJcC<$JcF'rq>dDmJ,~>
JcC<$s8VfnJcC<$JcF'rq>dDmJ,~>
JcC<$s8VfnJcC<$JcF'rq>dDmJ,~>
JcC<$p&K[DJcC<$cN!_@VZ2/~>
JcC<$p&K[DJcC<$cN!_@VZ2/~>
JcC<$p&K[DJcC<$cN!_@VZ2/~>
JcC?%pAfdEJcC<$bl@M>VZ2/~>
JcC?%pAfdEJcC<$bl@M>VZ2/~>
JcC?%pAfdEJcC<$bl@M>VZ2/~>
JcCB&pAfdEJcC<$bQ%D=VZ2/~>
JcCB&pAfdEJcC<$bQ%D=VZ2/~>
JcCB&pAfdEJcC<$bQ%D=VZ2/~>
JcCH(p&K[DJcC<$b5_;<VZ2/~>
JcCH(p&K[DJcC<$b5_;<VZ2/~>
JcCH(p&K[DJcC<$b5_;<VZ2/~>
JcCK)p&K[DJcC<$aoD2;VZ2/~>
JcCK)p&K[DJcC<$aoD2;VZ2/~>
JcCK)p&K[DJcC<$aoD2;VZ2/~>
JcCN*pAfdEJcC<$a8bu9VZ2/~>
JcCN*pAfdEJcC<$a8bu9VZ2/~>
JcCN*pAfdEJcC<$a8bu9VZ2/~>
JcCT,p&K[DJcC<$`rGl8VZ2/~>
JcCT,p&K[DJcC<$`rGl8VZ2/~>
JcCT,p&K[DJcC<$`rGl8VZ2/~>
JcCW-p&K[DJcC<$`W,c7VZ2/~>
JcCW-p&K[DJcC<$`W,c7VZ2/~>
JcCW-p&K[DJcC<$`W,c7VZ2/~>
JcCZ.pAfdEJcC<$_uKQ5VZ2/~>
JcCZ.pAfdEJcC<$_uKQ5VZ2/~>
JcCZ.pAfdEJcC<$_uKQ5VZ2/~>
JcC]/pAfdEJcC<$_Z0H4VZ2/~>
JcC]/pAfdEJcC<$_Z0H4VZ2/~>
JcC]/pAfdEJcC<$_Z0H4VZ2/~>
JcCc1p&K[DJcC<$_>j?3VZ2/~>
JcCc1p&K[DJcC<$_>j?3VZ2/~>
JcCc1p&K[DJcC<$_>j?3VZ2/~>
JcCf2pAfdEJcC<$^]4-1VZ2/~>
JcCf2pAfdEJcC<$^]4-1VZ2/~>
JcCf2pAfdEJcC<$^]4-1VZ2/~>
JcCi3pAfdEJcC<$^An$0VZ2/~>
JcCi3pAfdEJcC<$^An$0VZ2/~>
JcCi3pAfdEJcC<$^An$0VZ2/~>
JcCo5p&K[DJcC<$^&Rp/VZ2/~>
JcCo5p&K[DJcC<$^&Rp/VZ2/~>
JcCo5p&K[DJcC<$^&Rp/VZ2/~>
JcCr6p&K[DJcC<$]`7g.VZ2/~>
JcCr6p&K[DJcC<$]`7g.VZ2/~>
JcCr6p&K[DJcC<$]`7g.VZ2/~>
JcCu7pAfdEJcC<$])VU,VZ2/~>
JcCu7pAfdEJcC<$])VU,VZ2/~>
JcCu7pAfdEJcC<$])VU,VZ2/~>
JcD&9p&K[DJcC<$\c;L+VZ2/~>
JcD&9p&K[DJcC<$\c;L+VZ2/~>
JcD&9p&K[DJcC<$\c;L+VZ2/~>
JcD):p&K[DJcC<$\GuC*VZ2/~>
JcD):p&K[DJcC<$\GuC*VZ2/~>
JcD):p&K[DJcC<$\GuC*VZ2/~>
JcD,;pAfdEJcC<$[f?1(VZ2/~>
JcD,;pAfdEJcC<$[f?1(VZ2/~>
JcD,;pAfdEJcC<$[f?1(VZ2/~>
JcD/<pAfdEJcC<$[K$('VZ2/~>
JcD/<pAfdEJcC<$[K$('VZ2/~>
JcD/<pAfdEJcC<$[K$('VZ2/~>
JcD5>p&K[DJcC<$[/]t&VZ2/~>
JcD5>p&K[DJcC<$[/]t&VZ2/~>
JcD5>p&K[DJcC<$[/]t&VZ2/~>
JcD8?pAfdEJcC<$ZN'b$VZ2/~>
JcD8?pAfdEJcC<$ZN'b$VZ2/~>
JcD8?pAfdEJcC<$ZN'b$VZ2/~>
JcD;@pAfdEJcC<$Z2aY#VZ2/~>
JcD;@pAfdEJcC<$Z2aY#VZ2/~>
JcD;@pAfdEJcC<$Z2aY#VZ2/~>
JcDABo`0RCJcC<$Z2aY#VZ2/~>
JcDABo`0RCJcC<$Z2aY#VZ2/~>
JcDABo`0RCJcC<$Z2aY#VZ2/~>
JcDDCo)O@AJcC<$ZN'b$VZ2/~>
JcDDCo)O@AJcC<$ZN'b$VZ2/~>
JcDDCo)O@AJcC<$ZN'b$VZ2/~>
JcDGDnGn.?JcC<$ZiBk%VZ2/~>
JcDGDnGn.?JcC<$ZiBk%VZ2/~>
JcDGDnGn.?JcC<$ZiBk%VZ2/~>
JcDMFmf7q=JcC<$ZiBk%VZ2/~>
JcDMFmf7q=JcC<$ZiBk%VZ2/~>
JcDMFmf7q=JcC<$ZiBk%VZ2/~>
JcDPGp&G*mq#H!GJcC<$[/]t&VZ2/~>
JcDPGp&G*mq#H!GJcC<$[/]t&VZ2/~>
JcDPGp&G*mq#H!GJcC<$[/]t&VZ2/~>
JcDSHpAk0lq#H!GJcC<$[K$('VZ2/~>
JcDSHpAk0lq#H!GJcC<$[K$('VZ2/~>
JcDSHpAk0lq#H!GJcC<$[K$('VZ2/~>
JcDVIpAk-kq#H!GJcC<$[K$('VZ2/~>
JcDVIpAk-kq#H!GJcC<$[K$('VZ2/~>
JcDVIpAk-kq#H!GJcC<$[K$('VZ2/~>
JcD\Kp&Oshq#H!GJcC<$[f?1(VZ2/~>
JcD\Kp&Oshq#H!GJcC<$[f?1(VZ2/~>
JcD\Kp&Oshq#H!GJcC<$[f?1(VZ2/~>
JcD_LpAjsfq#H!GJcC<$\,Z:)VZ2/~>
JcD_LpAjsfq#H!GJcC<$\,Z:)VZ2/~>
JcD_LpAjsfq#H!GJcC<$\,Z:)VZ2/~>
JcDbMpAjpep],mFJcC<$\GuC*VZ2/~>
JcDbMpAjpep],mFJcC<$\GuC*VZ2/~>
JcDbMpAjpep],mFJcC<$\GuC*VZ2/~>
JcDhOp&Oabq#H!GJcC<$\GuC*VZ2/~>
JcDhOp&Oabq#H!GJcC<$\GuC*VZ2/~>
JcDhOp&Oabq#H!GJcC<$\GuC*VZ2/~>
JcDkPp&O[`q#H!GJcC<$\c;L+VZ2/~>
JcDkPp&O[`q#H!GJcC<$\c;L+VZ2/~>
JcDkPp&O[`q#H!GJcC<$\c;L+VZ2/~>
JcDnQpAj^_p],mFJcC<$])VU,VZ2/~>
JcDnQpAj^_p],mFJcC<$])VU,VZ2/~>
JcDnQpAj^_p],mFJcC<$])VU,VZ2/~>
JcDtSp&OO\q#H!GJcC<$])VU,VZ2/~>
JcDtSp&OO\q#H!GJcC<$])VU,VZ2/~>
JcDtSp&OO\q#H!GJcC<$])VU,VZ2/~>
JcE"Tp&OIZq#H!GJcC<$]Dq^-VZ2/~>
JcE"Tp&OIZq#H!GJcC<$]Dq^-VZ2/~>
JcE"Tp&OIZq#H!GJcC<$]Dq^-VZ2/~>
JcE%UpAjLYp],mFJcC<$]`7g.VZ2/~>
JcE%UpAjLYp],mFJcC<$]`7g.VZ2/~>
JcE%UpAjLYp],mFJcC<$]`7g.VZ2/~>
JcE(VpAjFWp],mFJcC<$^&Rp/VZ2/~>
JcE(VpAjFWp],mFJcC<$^&Rp/VZ2/~>
JcE(VpAjFWp],mFJcC<$^&Rp/VZ2/~>
JcE.Xp&O7Tq#H!GJcC<$^&Rp/VZ2/~>
JcE.Xp&O7Tq#H!GJcC<$^&Rp/VZ2/~>
JcE.Xp&O7Tq#H!GJcC<$^&Rp/VZ2/~>
JcE1YpAj7Rq#H!GJcC<$^An$0VZ2/~>
JcE1YpAj7Rq#H!GJcC<$^An$0VZ2/~>
JcE1YpAj7Rq#H!GJcC<$^An$0VZ2/~>
JcE4ZpAj4Qq#H!GJcC<$^An$0VZ2/~>
JcE4ZpAj4Qq#H!GJcC<$^An$0VZ2/~>
JcE4ZpAj4Qq#H!GJcC<$^An$0VZ2/~>
JcE:\p&O%Nq#H!GJcC<$^]4-1VZ2/~>
JcE:\p&O%Nq#H!GJcC<$^]4-1VZ2/~>
JcE:\p&O%Nq#H!GJcC<$^]4-1VZ2/~>
JcE=]p&NtLq#H!GJcC<$_#O62VZ2/~>
JcE=]p&NtLq#H!GJcC<$_#O62VZ2/~>
JcE=]p&NtLq#H!GJcC<$_#O62VZ2/~>
JcE@^pAj"Kq#H!GJcC<$_#O62VZ2/~>
JcE@^pAj"Kq#H!GJcC<$_#O62VZ2/~>
JcE@^pAj"Kq#H!GJcC<$_#O62VZ2/~>
JcEF`p&NhHq#H!GJcC<$_>j?3VZ2/~>
JcEF`p&NhHq#H!GJcC<$_>j?3VZ2/~>
JcEF`p&NhHq#H!GJcC<$_>j?3VZ2/~>
JcEIap&NeGq#H!GJcC<$_>j?3VZ2/~>
JcEIap&NeGq#H!GJcC<$_>j?3VZ2/~>
JcEIap&NeGq#H!GJcC<$_>j?3VZ2/~>
JcELbpAieEq#H!GJcC<$_Z0H4VZ2/~>
JcELbpAieEq#H!GJcC<$_Z0H4VZ2/~>
JcELbpAieEq#H!GJcC<$_Z0H4VZ2/~>
JcERdp&NVBq>c*HJcC<$_Z0H4VZ2/~>
JcERdp&NVBq>c*HJcC<$_Z0H4VZ2/~>
JcERdp&NVBq>c*HJcC<$_Z0H4VZ2/~>
JcEUep&NSAq#H!GJcC<$_uKQ5VZ2/~>
JcEUep&NSAq#H!GJcC<$_uKQ5VZ2/~>
JcEUep&NSAq#H!GJcC<$_uKQ5VZ2/~>
JcEXfpAiS?q#H!GJcC<$`;fZ6VZ2/~>
JcEXfpAiS?q#H!GJcC<$`;fZ6VZ2/~>
JcEXfpAiS?q#H!GJcC<$`;fZ6VZ2/~>
JcE[gpAiP>q#H!GJcC<$`;fZ6VZ2/~>
JcE[gpAiP>q#H!GJcC<$`;fZ6VZ2/~>
JcE[gpAiP>q#H!GJcC<$`;fZ6VZ2/~>
JcEaip&NA;q#H!GJcC<$`W,c7VZ2/~>
JcEaip&NA;q#H!GJcC<$`W,c7VZ2/~>
JcEaip&NA;q#H!GJcC<$`W,c7VZ2/~>
JcEdjpAiD:q#H!GJcC<$`W,c7VZ2/~>
JcEdjpAiD:q#H!GJcC<$`W,c7VZ2/~>
JcEdjpAiD:q#H!GJcC<$`W,c7VZ2/~>
JcEgkpAi>8q#H!GJcC<$`rGl8VZ2/~>
JcEgkpAi>8q#H!GJcC<$`rGl8VZ2/~>
JcEgkpAi>8q#H!GJcC<$`rGl8VZ2/~>
JcEmmp&N/5q>c*HJcC<$`rGl8VZ2/~>
JcEmmp&N/5q>c*HJcC<$`rGl8VZ2/~>
JcEmmp&N/5q>c*HJcC<$`rGl8VZ2/~>
JcEpnp&N,4q#H!GJcC<$a8bu9VZ2/~>
JcEpnp&N,4q#H!GJcC<$a8bu9VZ2/~>
JcEpnp&N,4q#H!GJcC<$a8bu9VZ2/~>
JcEsopAi,2q#H!GJcC<$aT)):VZ2/~>
JcEsopAi,2q#H!GJcC<$aT)):VZ2/~>
JcEsopAi,2q#H!GJcC<$aT)):VZ2/~>
JcF$qp&Mu0q#H!GJcC<$aT)):VZ2/~>
JcF$qp&Mu0q#H!GJcC<$aT)):VZ2/~>
JcF$qp&Mu0q#H!GJcC<$aT)):VZ2/~>
JcF'rp&Mo.q#H!GJcC<$aoD2;VZ2/~>
JcF'rp&Mo.q#H!GJcC<$aoD2;VZ2/~>
JcF'rp&Mo.q#H!GJcC<$aoD2;VZ2/~>
JcF*spAhr-q#H!GJcC<$aoD2;VZ2/~>
JcF*spAhr-q#H!GJcC<$aoD2;VZ2/~>
JcF*spAhr-q#H!GJcC<$aoD2;VZ2/~>
JcF-tpAhl+q#H!GJcC<$b5_;<VZ2/~>
JcF-tpAhl+q#H!GJcC<$b5_;<VZ2/~>
JcF-tpAhl+q#H!GJcC<$b5_;<VZ2/~>
JcF4!p&M](q>c*HJcC<$b5_;<VZ2/~>
JcF4!p&M](q>c*HJcC<$b5_;<VZ2/~>
JcF4!p&M](q>c*HJcC<$b5_;<VZ2/~>
JcF7"pAh`'q#H!GJcC<$bQ%D=VZ2/~>
JcF7"pAh`'q#H!GJcC<$bQ%D=VZ2/~>
JcF7"pAh`'q#H!GJcC<$bQ%D=VZ2/~>
JcF:#pAhZ%q>c*HJcC<$bQ%D=VZ2/~>
JcF:#pAhZ%q>c*HJcC<$bQ%D=VZ2/~>
JcF:#pAhZ%q>c*HJcC<$bQ%D=VZ2/~>
JcF@%p&MN#q#H!GJcC<$bl@M>VZ2/~>
JcF@%p&MN#q#H!GJcC<$bl@M>VZ2/~>
JcF@%p&MN#q#H!GJcC<$bl@M>VZ2/~>
JcFC&p&MH!q>c*HJcC<$bl@M>VZ2/~>
JcFC&p&MH!q>c*HJcC<$bl@M>VZ2/~>
JcFC&p&MH!q>c*HJcC<$bl@M>VZ2/~>
JcFF'pAhJuq#H!GJcC<$c2[V?VZ2/~>
JcFF'pAhJuq#H!GJcC<$c2[V?VZ2/~>
JcFF'pAhJuq#H!GJcC<$c2[V?VZ2/~>
JcFL)p&M;rq>c*HJcC<$c2[V?VZ2/~>
JcFL)p&M;rq>c*HJcC<$c2[V?VZ2/~>
JcFL)p&M;rq>c*HJcC<$c2[V?VZ2/~>
JcFO*p&M8qq#H!GJcC<$cN!_@VZ2/~>
JcFO*p&M8qq#H!GJcC<$cN!_@VZ2/~>
JcFO*p&M8qq#H!GJcC<$cN!_@VZ2/~>
JcFR+pAh8oq>eJ6"$-D^OSf%X[ep+*OFdF_s.',c!2fdH~>
JcFR+pAh8oq>eM7!8IJQ!8IDN!+u-/!8E))JcD8?q>dDmJ,~>
JcFR+pAh8oq>eM7"-<K_3r8mS!!#'2s+13>s7u_ms*t~>
JcFU,pAh5nq#JM9!0I-Z!8IGO!8I8K!'5]2JcD>Aq>dDmJ,~>
JcFU,pAh5nq#JM9!':)Z!':#W!0HsU!0Dd3JcD>Aq>dDmJ,~>
JcFU,pAh5nq#JP:!8IGP!0I*X!'9lT!8E))JcD>Aq>dDmJ,~>
JcF[.p&M&kq>e\<!8IGP!4Me)!8I/H!8E))JcDDCq>dDmJ,~>
JcF[.p&M&kq>e\<!0I-ZqYpPWp&G(RJcC<$TE"`fVZ2/~>
JcF[.p&M&kq>e\<!':)Z!+u*-!'9fR!0Dd3JcDABq>dDmJ,~>
JcF^/pAh)jq#JY=!0I-Z!4Mb(o)Jd!JcC<$U&XrhVZ2/~>
JcF^/pAh)jq#JY=!':&YqYpQ(o)O@AJcDDCq>dDmJ,~>
JcF^/pAh)jq#J\>!8IGP!+u*-!+tj'!+pf^JcDDCq>dDmJ,~>
JcFa0pAh#hq>ee?!0I-Z!0I'W!0I-Z"5EkUg\LmM[XnI0s.]Pi!2fdH~>
JcFa0pAh#hq>ee?!':&Y!8IAM!':)Z!':,Z!0I$WJcC<$U&XrhVZ2/~>
JcFa0pAh#hq>eh@!8IGP!'9uV!8IGP!0I3[!'9uW!+pf^JcDGDq>dDmJ,~>
JcFg2p&Llfq#Jb@!0I-Z!'9rU!':)Z!8IGO!+u*.!4IIYJcDMFq>dDmJ,~>
JcFg2p&Llfq#Jb@!':&Y!0I'W!8IJQ!':#Wq>c*HJcDJEq>dDmJ,~>
JcFg2p&Llfq#JeA!8IDO!8IAM!0I0[!0I-Y!4Mb)!+pf^JcDJEq>dDmJ,~>
JcFj3p&Lfdq>enB!8IDO!4Mb(!8IJQ!'9uV!+u*.JcC<$U]:/jVZ2/~>
JcFj3p&Lfdq>enB!0I*Yq>UGVrVuq[qZ$Em!+pf^JcDMFq>dDmJ,~>
JcFj3p&Lfdq>enB!':&Y!+u',!':)Z!8IDN!4Mb)!4IIYJcDMFq>dDmJ,~>
JcFm4pAgicq>enB!':&Y!'9rU!8IJQ!+u',qZ$VXJcC<$V#U8kVZ2/~>
JcFm4pAgicq>eqC!8IDO!0I$V!0I0[!4Mb(!4Mb)!8E))JcDPGq>dDmJ,~>
JcFm4pAgicq>eqC!0I*Y!8I>L!':)Zq>UG,qu?^XJcC<$U]:/jVZ2/~>
JcFs6p&LZ`q>etD!4Me*!0I$V!4Mk,!0I$V!4Mb)!8E))JcDSHq>dDmJ,~>
JcFs6p&LZ`q>etD!+u-/!8I>L!+u31!8I>L!+u-/!'5]2JcDPGq>dDmJ,~>
JcFs6p&LZ`q>etDqu?^Xq#C<n!'9oTqZ$VXJcC<$V#U8kVZ2/~>
JcG!7p&LW_q>etD!':#X!4M_'!4Mk,!0I!U!':#X!0Dd3JcDSHq>dDmJ,~>
JcG!7p&LW_q>f"E!8IANq#:>+rVurQq>UHLqZ$WNJcC<$V>pAlVZ2/~>
JcG!7p&LW_q>f"E!0I*Y!+u$+rVupZq#:>Uqu?^XJcC<$V#U8kVZ2/~>
JcG$8pAgW]q>f%F!8IANq#:>UrVuq[q#:?&qu?^XJcC<$V>pAlVZ2/~>
JcG$8pAgW]q>f%F!0I*Y!+u$+!':)Z!8I;K!+u-/!0Dd3JcDSHq>dDmJ,~>
JcG$8pAgW]q>f%F!':#X!4M_'!8IJQ!'9lSqZ$WNJcC<$V>pAlVZ2/~>
JcG'9pAgT\q>f%F!0I*Y!'9oT!0I0[!0HsTqZ$WNJcC<$VZ6JmVZ2/~>
JcG'9pAgT\q>f%F!':#X!0I!U!':)Z!8I;K!4Me*!'5]2JcDSHq>dDmJ,~>
JcG'9pAgT\q>f(G!8IAN!8I>L!8IJQ!'9lS!+u-/!0Dd3JcDSHq>dDmJ,~>
JcG-;p&LHZq#JtF!+u-/!+u$+!0I0[!0HsT!':#X!4IIYJcDVIq>dDmJ,~>
JcG-;p&LHZq#JtFqZ$W)q#:=TrVurQq#:?KqZ)3IJcDSHq>dDmJ,~>
JcG-;p&LHZq#K"G!4Mb)q#:?KrVupZp\t5Tqu?_/JcC<$V>pAlVZ2/~>
JcG0<pAgHXq>f(G!':#X!+u$+!0I0[!0HsT!0I*Y!0Dd3JcDVIq>dDmJ,~>
JcG0<pAgHXq>f+H!8IAN!4M\&!':)Z!8I8J!':#X!8E))JcDVIq>dDmJ,~>
JcG0<pAgHXq>f+H!0I'Xq#:?KrVupZp\t6Jqu?^XJcC<$V>pAlVZ2/~>
JcG3=pAgEWq#K"GqZ$VXq#:>UrVuq[p\t6%qu?_/JcC<$VZ6JmVZ2/~>
JcG3=pAgEWq#K%H!4Mb)!8I;K!':)Z!8I8J!+u-/!4IIYJcDVIq>dDmJ,~>
JcG3=pAgEWq#K%H!+u-/!'9oT!8IJQ!'9iRqZ)3IJcDSHq>dDmJ,~>
JcG9?p&L6Tq>f+HqZ$VXq#:>UrVuq[p\t6Jqu?_/JcC<$VZ6JmVZ2/~>
JcG9?p&L6Tq>f.I!4Mb)!8I;K!':)Z!8I8J!0I*Y!4IIYJcDVIq>dDmJ,~>
JcG9?p&L6Tq>f.I!+u-/!'9oT!8IJQ!'9iR!':#XJcC<$V>pAlVZ2/~>
JcG<@p&L3Sq>f.I!8IAN!0I!U!0I0[!0HsT!8IDO!'5]2JcDVIq>dDmJ,~>
JcG<@p&L3Sq>f.I!0I'X!8I;K!':)Z!8I8J!0I*Y!0Dd3JcDVIq>dDmJ,~>
JcG<@p&L3Sq>f.I!':#X!'9oT!8IJQ!'9iR!':#X!8E))JcDVIq>dDmJ,~>
JcG?ApAg3Qq>f1J!8IAN!0I!U!0I0[!0HpSqu?^XJcC<$VZ6JmVZ2/~>
JcG?ApAg3Qq>f1J!0I'X!8I;K!':)Z!8I8J!4Me*!0Dd3JcDVIq>dDmJ,~>
JcG?ApAg3Qq>f1J!':#X!'9oT!8IJQ!'9iR!+u-/!8E))JcDVIq>dDmJ,~>
JcGECp&L'Oq>f.IqZ$VXq#:>UrVuq[pAb$j!+pf^JcDVIq>dDmJ,~>
JcGECp&L'Oq>f1J!4Mb)!8I;K!':)Z!8I8J!4Me*!4IIYJcDVIq>dDmJ,~>
JcGECp&L'Oq>f1J!+u-/!'9oT!8IJQ!'9iR!+u-/JcC<$V>pAlVZ2/~>
JcGHDp&L!Mq>f1JqZ$V.q#:>UrVuq[pAb$j!+pf^JcDVIq>dDmJ,~>
JcGHDp&L!Mq>f4K!4Mb)!4M\&!':)Z!8I8J!4Me*!4IIYJcDVIq>dDmJ,~>
JcGHDp&L!Mq>f4K!+u*.q#:?KrVupZpAY,)quD<JJcDSHq>dDmJ,~>
JcGKEpAg$Lq>f1J!':#X!+u$+!0I0[!0HpSqu?_YJcC<$VZ6JmVZ2/~>
JcGKEpAg$Lq>f4K!8IAN!4M\&!':)Z!8I8J!4Me*!8E))JcDVIq>dDmJ,~>
JcGKEpAg$Lq>f4K!0I'Xq#:?KrVupZpAY,)r;ZgYJcC<$V>pAlVZ2/~>
JcGNFpAg!Kq>f1J!+u-/!'9oT!0I0[!0HsT!8IDO!4IIYJcDVIq>dDmJ,~>
JcGNFpAg!Kq>f1JqZ$VXq#:=TrVurQp\t5TquD<JJcDSHq>dDmJ,~>
JcGNFpAg!Kq>f4K!4Mb)!8I>L!8IJQ!'9iR!':&Y!+pf^JcDSHq>dDmJ,~>
JcGTHp&KgHq>f4K!0I'Xq#:>UrVuq[p\t6%quD<JJcDSHq>dDmJ,~>
JcGTHp&KgHq>f4K!':#X!+u$+!':)Z!8I8J!+u00!+pf^JcDSHq>dDmJ,~>
JcGTHp&KgHq>f7L!8IAN!4M_'!8IJQ!'9iRqu?`*JcC<$V>pAlVZ2/~>
JcGWIpAfjGq>f4K!4Mb)!8I>L!0I0[!0HsT!0I-Z!'5]2JcDSHq>dDmJ,~>
JcGWIpAfjGq>f4K!+u-/!'9oT!':)Z!8I8J!':&Y!0Dd3JcDSHq>dDmJ,~>
JcGWIpAfjGq>f4KqZ$VXq>UHLrVupZp\t6Jqu?`OJcC<$V>pAlVZ2/~>
JcGZJpAfgFq>f1JqZ$VXq>UGVrVuq[p\t5*r;ZhZJcC<$V>pAlVZ2/~>
JcGZJpAfgFq>f4K!4Mb)!8I>L!':)Z!8I8Jqu?`OJcC<$V>pAlVZ2/~>
JcGZJpAfgFq>f4K!+u-/!'9rU!8IJQ!'9lS!4Mh+!'5]2JcDPGq>dDmJ,~>
JcG`Lp&K[D!<;lqg&D&6qu?_/q>UGVrVuq[p](-kJcC<$V#U8kVZ2/~>
JcG`Lp&K[D!<;lqg&D%5qu?`*q>UFUrVurQq#:?&r;Zh0JcC<$V#U8kVZ2/~>
JcG`Lp&K[D!<;lqgA_0-qZ-Hl!8IJQ!'9lS!+u00!4IIYJcDPGq>dDmJ,~>
JcGcMp&K[Ds8Voqg&D',qZ$WNqYpPWrVuq[q#:?&r;ZhZJcC<$V#U8kVZ2/~>
JcGcMp&K[Ds8Voqg&D&6qu?^Xq>UFUrVurQq#:>+r;ZiPJcC<$V#U8kVZ2/~>
JcGcMp&K[Ds8Voqg&D%5qu?_YqYpQMrVupZp](0l!'5]2JcDMFq>dDmJ,~>
Jc>`MpAfdEr;ZTng&D&6qu?_YqYpPWrVuq[q#:=Tr;_EKJcDMFq>dDmJ,~>
Jc>`MpAfdEr;ZTng&D%5qu?`OqYpOVrVurQq>UHLr;Zh0JcC<$U]:/jVZ2/~>
Jc>`MpAfdEr;ZTngA_0-qu?^XqYpQMrVupZq#:>Ur;Zi+JcC<$U]:/jVZ2/~>
K)bNEJcGWIq>f1J!':#X!8IDN!0I0[!0I$V!4Mh+!4IIYJcDMFq>dDmJ,~>
K)bNEJcGWIq>f4K!8IDO!'9uV!':)Z!8I>L!+u00JcC<$UAt&iVZ2/~>
K)bNEJcGWIq>f4K!0I*Y!0I*X!8IJQ!'9oTr;Zh0JcC<$UAt&iVZ2/~>
KE(WFJcGTHq>f1J!8IDO!+u-.!0I0[!0I$Vr;Zh0JcC<$UAt&iVZ2/~>
KE(WFJcGTHq>f1J!0I*Y!4Me)!':)Z!8IAM!4Mh+!4IIYJcDJEq>dDmJ,~>
KE(WFJcGTHq>f1J!':#Xqu6ZNrVupZq>UG,r;_EKJcDGDq>dDmJ,~>
K`CcHJcGKEq>f1J!4Me*!0I-Y!0I0[!0I'Wr;ZgYJcC<$U&XrhVZ2/~>
K`CcHJcGKEq>f1J!+u-/!8IGO!':)Z!8IDN!4Mh+!0Dd3JcDGDq>dDmJ,~>
K`CcHJcGKEq>f1Jqu?^Xr;QcOrVupZqYpP-r;ZiPJcC<$U&XrhVZ2/~>
L&^lIJcGHDq>f.I!4Me*!+u30!0I0[!0I-Y!8IGP!'5]2JcDDCq>dDmJ,~>
L&^lIJcGHDq>f.I!+u-/!4Mk+!':)Z!8IGO!0I-Z!0Dd3JcDDCq>dDmJ,~>
L&^lIJcGHDq>f.IqZ-Tp!8IJQ!':#W!':&Y!8E))JcDDCq>dDmJ,~>
L]@&JJcGECq>f+H!8IANrr2t[rVuq[rVlk0r;ZhZJcC<$TE"`fVZ2/~>
L]@&JJcGECq>f+H!0I*Y!+u61!':)Z!8IJPqu?`OJcC<$TE"`fVZ2/~>
L]@&JJcGECq>f+H!':#X"1J70g\q0Q3rT'Y[f$1+3e@<^s.98e!2fdH~>
M#[2LJcG<@q>f(G!+u*.!WS8\!!88^g\Uu%s+13@s7u_ms*t~>
M#[2LJcG<@q>f(GqZ$\0s#U,Z!o*a:qu?_/JcC<$ScANdVZ2/~>
M#[2LJcG<@q>f+H!4Mb)!Ogb^!!>:^s#U&X!4IIYJcD;@q>dDmJ,~>
M?!;MJcG9?q>f"E!+ta$JcC<$S,`<bVZ2/~>
M?!;MJcG9?q>f"EnGiQ$JcC<$S,`<bVZ2/~>
M?!;MJcG9?q>f%F!4MCt!4IIYJcD5>q>dDmJ,~>
MuWJNJcG3=q>eqC!0HsU!'5]2JcD,;q>dDmJ,~>
MuWJNJcG3=q>eqC!'9lT!0Dd3JcD,;q>dDmJ,~>
MuWJNJcG3=q>etD!8I5J!8E))JcD,;q>dDmJ,~>
N;rSOJcG0<q>eh@!0I0[!0Dd3JcD#8q>dDmJ,~>
N;rSOJcG0<q>eh@!':)Z!8E))JcD#8q>dDmJ,~>
N;rSOJcG0<q>ekA!8IJQ!'5]2JcCu7q>dDmJ,~>
NW8_QJcG*:q>eh@!0I0[!0Dd3JcD#8q>dDmJ,~>
NW8_QJcG*:q>eh@!':)Z!8E))JcD#8q>dDmJ,~>
NW8_QJcG*:q>ekA!8IJQ!'5]2JcCu7q>dDmJ,~>
O8nnRJcG$8q>ekA!0I0[!0Dd3JcD#8q>dDmJ,~>
O8nnRJcG$8q>ekA!':)Z!8E))JcD#8q>dDmJ,~>
O8nnRJcG$8q>enB!8IJQ!'5]2JcCu7q>dDmJ,~>
OT5"SJcG!7q>ekA!0I0[!0Dd3JcD#8q>dDmJ,~>
OT5"SJcG!7q>ekA!':)Z!8E))JcD#8q>dDmJ,~>
OT5"SJcG!7q>enB!8IJQ!'5]2JcCu7q>dDmJ,~>
OoP.UJcFp5q>ekA!0I0[!0Dd3JcD#8q>dDmJ,~>
OoP.UJcFp5q>ekA!':)Z!8E))JcD#8q>dDmJ,~>
OoP.UJcFp5q>enB!8IJQ!'5]2JcCu7q>dDmJ,~>
PQ1=VJcFm4q>ekA!0I0[!0Dd3JcD#8q>dDmJ,~>
PQ1=VJcFm4q>ekA!':)Z!8E))JcD#8q>dDmJ,~>
PQ1=VJcFm4q>enB!8IJQ!'5]2JcCu7q>dDmJ,~>
PlLFWJcFg2q>enB!0I0[!0Dd3JcD#8q>dDmJ,~>
PlLFWJcFg2q>enB!':)Z!8E))JcD#8q>dDmJ,~>
PlLFWJcFg2q>eqC!8IJQ!'5]2JcCu7q>dDmJ,~>
Q2gRYJcFa0q>enB!0I0[!0Dd3JcD#8q>dDmJ,~>
Q2gRYJcFa0q>enB!':)Z!8E))JcD#8q>dDmJ,~>
Q2gRYJcFa0q>eqC!8IJQ!'5]2JcCu7q>dDmJ,~>
QN-[ZJcF^/q>enB!0I0[!0Dd3JcD#8q>dDmJ,~>
QN-[ZJcF^/q>enB!':)Z!8E))JcD#8q>dDmJ,~>
QN-[ZJcF^/q>eqC!8IJQ!'5]2JcCu7q>dDmJ,~>
R/cj[JcFX-q>eqC!0I0[!0Dd3JcD#8q>dDmJ,~>
R/cj[JcFX-q>eqC!':)Z!8E))JcD#8q>dDmJ,~>
R/cj[JcFX-q>etD!8IJQ!'5]2JcCu7q>dDmJ,~>
RK*!]JcFR+q>eqC!0I0[!0Dd3JcD#8q>dDmJ,~>
RK*!]JcFR+q>eqC!':)Z!8E))JcD#8q>dDmJ,~>
RK*!]JcFR+q>etD!8IJQ!'5]2JcCu7q>dDmJ,~>
RfE*^JcFO*q>eqC!0I0[!0Dd3JcD#8q>dDmJ,~>
RfE*^JcFO*q>eqC!':)Z!8E))JcD#8q>dDmJ,~>
RfE*^JcFO*q>etD!8IJQ!'5]2JcCu7q>dDmJ,~>
SH&9_JcFL)q>eqC!0I0[!0Dd3JcD#8q>dDmJ,~>
SH&9_JcFL)q>eqC!':)Z!8E))JcD#8q>dDmJ,~>
SH&9_JcFL)q>etD!8IJQ!'5]2JcCu7q>dDmJ,~>
ScAB`JcFF'q>etD!0I0[!0Dd3JcD#8q>dDmJ,~>
ScAB`JcFF'q>etD!':)Z!8E))JcD#8q>dDmJ,~>
ScAB`JcFF'q>f"E!8IJQ!'5]2JcCu7q>dDmJ,~>
T)\NbJcF@%q>etD!0I0[!0Dd3JcD#8q>dDmJ,~>
T)\NbJcF@%q>etD!':)Z!8E))JcD#8q>dDmJ,~>
T)\NbJcF@%q>f"E!8IJQ!'5]2JcCu7q>dDmJ,~>
T`=]cJcF=$q>c*HJcC<$iW&`SVZ2/~>
T`=]cJcF=$q>c*HJcC<$iW&`SVZ2/~>
T`=]cJcF=$q>c*HJcC<$iW&`SVZ2/~>
U&XfdJcF7"q>c*HJcC<$irAiTVZ2/~>
U&XfdJcF7"q>c*HJcC<$irAiTVZ2/~>
U&XfdJcF7"q>c*HJcC<$irAiTVZ2/~>
UAsrfJcF0uq>c*HJcC<$irAiTVZ2/~>
UAsrfJcF0uq>c*HJcC<$irAiTVZ2/~>
UAsrfJcF0uq>c*HJcC<$irAiTVZ2/~>
U]:&gJcF-tq>c*HJcC<$irAiTVZ2/~>
U]:&gJcF-tq>c*HJcC<$irAiTVZ2/~>
U]:&gJcF-tq>c*HJcC<$irAiTVZ2/~>
V>p5hJcF'rq>c*HJcC<$j8\rUVZ2/~>
V>p5hJcF'rq>c*HJcC<$j8\rUVZ2/~>
V>p5hJcF'rq>c*HJcC<$j8\rUVZ2/~>
VZ6AjJcF!pq>c*HJcC<$j8\rUVZ2/~>
VZ6AjJcF!pq>c*HJcC<$j8\rUVZ2/~>
VZ6AjJcF!pq>c*HJcC<$j8\rUVZ2/~>
VuQJkJcEsoq>c*HJcC<$j8\rUVZ2/~>
VuQJkJcEsoq>c*HJcC<$j8\rUVZ2/~>
VuQJkJcEsoq>c*HJcC<$j8\rUVZ2/~>
WW2YlJcEpnq>c*HJcC<$j8\rUVZ2/~>
WW2YlJcEpnq>c*HJcC<$j8\rUVZ2/~>
WW2YlJcEpnq>c*HJcC<$j8\rUVZ2/~>
WrMbmJcEjlq>c*HJcC<$jT#&VVZ2/~>
WrMbmJcEjlq>c*HJcC<$jT#&VVZ2/~>
WrMbmJcEjlq>c*HJcC<$jT#&VVZ2/~>
X8hnoJcEdjq>c*HJcC<$jT#&VVZ2/~>
X8hnoJcEdjq>c*HJcC<$jT#&VVZ2/~>
X8hnoJcEdjq>c*HJcC<$jT#&VVZ2/~>
XoJ(pJcEaiq>c*HJcC<$jT#&VVZ2/~>
XoJ(pJcEaiq>c*HJcC<$jT#&VVZ2/~>
XoJ(pJcEaiq>c*HJcC<$jT#&VVZ2/~>
Y5e1qJcE^hq>c*HJcC<$jT#&VVZ2/~>
Y5e1qJcE^hq>c*HJcC<$jT#&VVZ2/~>
Y5e1qJcE^hq>c*HJcC<$jT#&VVZ2/~>
YQ+=sJcEXfq>c*HJcC<$jT#&VVZ2/~>
YQ+=sJcEXfq>c*HJcC<$jT#&VVZ2/~>
YQ+=sJcEXfq>c*HJcC<$jT#&VVZ2/~>
YlFFtJcERdq>c*HJcC<$jo>/WVZ2/~>
YlFFtJcERdq>c*HJcC<$jo>/WVZ2/~>
YlFFtJcERdq>c*HJcC<$jo>/WVZ2/~>
ZN'UuJcEOcq>c*HJcC<$jo>/WVZ2/~>
ZN'UuJcEOcq>c*HJcC<$jo>/WVZ2/~>
ZN'UuJcEOcq>c*HJcC<$jo>/WVZ2/~>
ZiBb"JcEIaq>c*HJcC<$jo>/WVZ2/~>
ZiBb"JcEIaq>c*HJcC<$jo>/WVZ2/~>
ZiBb"JcEIaq>c*HJcC<$jo>/WVZ2/~>
[/]k#JcEF`q>c*HJcC<$jo>/WVZ2/~>
[/]k#JcEF`q>c*HJcC<$jo>/WVZ2/~>
[/]k#JcEF`q>c*HJcC<$jo>/WVZ2/~>
[f?%$JcE@^q>c*HJcC<$k5Y8XVZ2/~>
[f?%$JcE@^q>c*HJcC<$k5Y8XVZ2/~>
[f?%$JcE@^q>c*HJcC<$k5Y8XVZ2/~>
\,Z.%JcE=]q>c*HJcC<$k5Y8XVZ2/~>
\,Z.%JcE=]q>c*HJcC<$k5Y8XVZ2/~>
\,Z.%JcE=]q>c*HJcC<$k5Y8XVZ2/~>
\Gu:'JcE7[q>c*HJcC<$k5Y8XVZ2/~>
\Gu:'JcE7[q>c*HJcC<$k5Y8XVZ2/~>
\Gu:'JcE7[q>c*HJcC<$k5Y8XVZ2/~>
])VI(JcE4Zq>c*HJcC<$k5Y8XVZ2/~>
])VI(JcE4Zq>c*HJcC<$k5Y8XVZ2/~>
])VI(JcE4Zq>c*HJcC<$k5Y8XVZ2/~>
]DqR)JcE1Yq>c*HJcC<$k5Y8XVZ2/~>
]DqR)JcE1Yq>c*HJcC<$k5Y8XVZ2/~>
]DqR)JcE1Yq>c*HJcC<$k5Y8XVZ2/~>
]`7^+JcE(Vq>c*HJcC<$kPtAYVZ2/~>
]`7^+JcE(Vq>c*HJcC<$kPtAYVZ2/~>
]`7^+JcE(Vq>c*HJcC<$kPtAYVZ2/~>
^&Rg,JcE%Uq>c*HJcC<$kPtAYVZ2/~>
^&Rg,JcE%Uq>c*HJcC<$kPtAYVZ2/~>
^&Rg,JcE%Uq>c*HJcC<$kPtAYVZ2/~>
^]4!-JcE"Tq>c*HJcC<$kPtAYVZ2/~>
^]4!-JcE"Tq>c*HJcC<$kPtAYVZ2/~>
^]4!-JcE"Tq>c*HJcC<$kPtAYVZ2/~>
_#O-/JcDqRq>c*HJcC<$kPtAYVZ2/~>
_#O-/JcDqRq>c*HJcC<$kPtAYVZ2/~>
_#O-/JcDqRq>c*HJcC<$kPtAYVZ2/~>
_>j60JcDnQq>c*HJcC<$kPtAYVZ2/~>
_>j60JcDnQq>c*HJcC<$kPtAYVZ2/~>
_>j60JcDnQq>c*HJcC<$kPtAYVZ2/~>
_uKE1JcDhOq>c*HJcC<$kl:JZVZ2/~>
_uKE1JcDhOq>c*HJcC<$kl:JZVZ2/~>
_uKE1JcDhOq>c*HJcC<$kl:JZVZ2/~>
`;fN2JcDeNq>c*HJcC<$kl:JZVZ2/~>
`;fN2JcDeNq>c*HJcC<$kl:JZVZ2/~>
`;fN2JcDeNq>c*HJcC<$kl:JZVZ2/~>
`W,Z4JcD_Lq>c*HJcC<$kl:JZVZ2/~>
`W,Z4JcD_Lq>c*HJcC<$kl:JZVZ2/~>
`W,Z4JcD_Lq>c*HJcC<$kl:JZVZ2/~>
a8bi5JcD\Kq>c*HJcC<$kl:JZVZ2/~>
a8bi5JcD\Kq>c*HJcC<$kl:JZVZ2/~>
a8bi5JcD\Kq>c*HJcC<$kl:JZVZ2/~>
aT(r6JcDYJq>c*HJcC<$kl:JZVZ2/~>
aT(r6JcDYJq>c*HJcC<$kl:JZVZ2/~>
aT(r6JcDYJq>c*HJcC<$kl:JZVZ2/~>
aoD)8JcDSHq>c*HJcC<$kl:JZVZ2/~>
aoD)8JcDSHq>c*HJcC<$kl:JZVZ2/~>
aoD)8JcDSHq>c*HJcC<$kl:JZVZ2/~>
b5_29JcDMFq>c*HJcC<$l2US[VZ2/~>
b5_29JcDMFq>c*HJcC<$l2US[VZ2/~>
b5_29JcDMFq>c*HJcC<$l2US[VZ2/~>
bl@A:JcDJEq>c*HJcC<$l2US[VZ2/~>
bl@A:JcDJEq>c*HJcC<$l2US[VZ2/~>
bl@A:JcDJEq>c*HJcC<$l2US[VZ2/~>
c2[M<JcDDCq>c*HJcC<$l2US[VZ2/~>
c2[M<JcDDCq>c*HJcC<$l2US[VZ2/~>
c2[M<JcDDCq>c*HJcC<$l2US[VZ2/~>
cN!V=JcDABq>c*HJcC<$l2US[VZ2/~>
cN!V=JcDABq>c*HJcC<$l2US[VZ2/~>
cN!V=JcDABq>c*HJcC<$l2US[VZ2/~>
d/We>JcD>Aq>c*HJcC<$l2US[VZ2/~>
d/We>JcD>Aq>c*HJcC<$l2US[VZ2/~>
d/We>JcD>Aq>c*HJcC<$l2US[VZ2/~>
dJrn?JcD;@q>c*HJcC<$l2US[VZ2/~>
dJrn?JcD;@q>c*HJcC<$l2US[VZ2/~>
dJrn?JcD;@q>c*HJcC<$l2US[VZ2/~>
df9%AJcD5>q>c*HJcC<$l2US[VZ2/~>
df9%AJcD5>q>c*HJcC<$l2US[VZ2/~>
df9%AJcD5>q>c*HJcC<$l2US[VZ2/~>
eGo4BJcD2=q>c*HJcC<$l2US[VZ2/~>
eGo4BJcD2=q>c*HJcC<$l2US[VZ2/~>
eGo4BJcD2=q>c*HJcC<$l2US[VZ2/~>
ec5=CJcD,;q>c*HJcC<$lMp\\VZ2/~>
ec5=CJcD,;q>c*HJcC<$lMp\\VZ2/~>
ec5=CJcD,;q>c*HJcC<$lMp\\VZ2/~>
f)PIEJcD&9q>c*HJcC<$lMp\\VZ2/~>
f)PIEJcD&9q>c*HJcC<$lMp\\VZ2/~>
f)PIEJcD&9q>c*HJcC<$lMp\\VZ2/~>
fDkRFJcD#8q>c*HJcC<$lMp\\VZ2/~>
fDkRFJcD#8q>c*HJcC<$lMp\\VZ2/~>
fDkRFJcD#8q>c*HJcC<$lMp\\VZ2/~>
g&LaGJcCu7q>c*HJcC<$lMp\\VZ2/~>
g&LaGJcCu7q>c*HJcC<$lMp\\VZ2/~>
g&LaGJcCu7q>c*HJcC<$lMp\\VZ2/~>
gAgmIJcCo5q>c*HJcC<$lMp\\VZ2/~>
gAgmIJcCo5q>c*HJcC<$lMp\\VZ2/~>
gAgmIJcCo5q>c*HJcC<$lMp\\VZ2/~>
g].!JJcCl4q>c*HJcC<$lMp\\VZ2/~>
g].!JJcCl4q>c*HJcC<$lMp\\VZ2/~>
g].!JJcCl4q>c*HJcC<$lMp\\VZ2/~>
h>d0KJcCi3q>c*HJcC<$lMp\\VZ2/~>
h>d0KJcCi3q>c*HJcC<$lMp\\VZ2/~>
h>d0KJcCi3q>c*HJcC<$lMp\\VZ2/~>
hZ*9LJcCf2q>c*HJcC<$lMp\\VZ2/~>
hZ*9LJcCf2q>c*HJcC<$lMp\\VZ2/~>
hZ*9LJcCf2q>c*HJcC<$lMp\\VZ2/~>
huEENJcC]/q>c*HJcC<$li6e]VZ2/~>
huEENJcC]/q>c*HJcC<$li6e]VZ2/~>
huEENJcC]/q>c*HJcC<$li6e]VZ2/~>
iW&TOJcCZ.q>c*HJcC<$li6e]VZ2/~>
iW&TOJcCZ.q>c*HJcC<$li6e]VZ2/~>
iW&TOJcCZ.q>c*HJcC<$li6e]VZ2/~>
irA]PJcCW-q>c*HJcC<$li6e]VZ2/~>
irA]PJcCW-q>c*HJcC<$li6e]VZ2/~>
irA]PJcCW-q>c*HJcC<$li6e]VZ2/~>
j8\iRJcCQ+q>c*HJcC<$li6e]VZ2/~>
j8\iRJcCQ+q>c*HJcC<$li6e]VZ2/~>
j8\iRJcCQ+q>c*HJcC<$li6e]VZ2/~>
jo>#SJcCN*q>c*HJcC<$li6e]VZ2/~>
jo>#SJcCN*q>c*HJcC<$li6e]VZ2/~>
jo>#SJcCN*q>c*HJcC<$li6e]VZ2/~>
k5Y,TJcCK)q>c*HJcC<$li6e]VZ2/~>
k5Y,TJcCK)q>c*HJcC<$li6e]VZ2/~>
k5Y,TJcCK)q>c*HJcC<$li6e]VZ2/~>
kPt8VJcCE'q>c*HJcC`0r;bmXq>dDmJ,~>
kPt8VJcCE'q>c*HJcC`0r;bmXq>dDmJ,~>
kPt8VJcCE'q>c*HJcC`0r;bmXq>dDmJ,~>
kl:AWJcCB&q>c*HJcCc1q>fXWq>dDmJ,~>
kl:AWJcCB&q>c*HJcCc1q>fXWq>dDmJ,~>
kl:AWJcCB&q>c*HJcCc1q>fXWq>dDmJ,~>
lMpPXJcC?%q>c*HJcCi3pAj@Uq>dDmJ,~>
lMpPXJcC?%q>c*HJcCi3pAj@Uq>dDmJ,~>
lMpPXJcC?%q>c*HJcCi3pAj@Uq>dDmJ,~>
li6\ZJcC<$!<;lqJcC<$OT4tRkl:JZVZ2/~>
li6\ZJcC<$!<;lqJcC<$OT4tRkl:JZVZ2/~>
li6\ZJcC<$!<;lqJcC<$OT4tRkl:JZVZ2/~>
m/Qe[JcC<$s8VoqJcC<$OT4nPlMp\\VZ2/~>
m/Qe[JcC<$s8VoqJcC<$OT4nPlMp\\VZ2/~>
m/Qe[JcC<$s8VoqJcC<$OT4nPlMp\\VZ2/~>
mf2t\JcC<$rr;fpJcC<$OT4hNm/Qn^VZ2/~>
mf2t\JcC<$rr;fpJcC<$OT4hNm/Qn^VZ2/~>
mf2t\JcC<$rr;fpJcC<$OT4hNm/Qn^VZ2/~>
n,N(]JcC<$rVu]oJcC<$OT4bLmf3+`VZ2/~>
n,N(]JcC<$rVu]oJcC<$OT4bLmf3+`VZ2/~>
n,N(]JcC<$rVu]oJcC<$OT4bLmf3+`VZ2/~>
nGi4_JcC<$qu?KmJcC<$OT4_Kn,N4aVZ2/~>
nGi4_JcC<$qu?KmJcC<$OT4_Kn,N4aVZ2/~>
nGi4_JcC<$qu?KmJcC<$OT4_Kn,N4aVZ2/~>
o)JC`JcC<$qZ$BlJcC<$OT4YInc/FcVZ2/~>
o)JC`JcC<$qZ$BlJcC<$OT4YInc/FcVZ2/~>
o)JC`JcC<$qZ$BlJcC<$OT4YInc/FcVZ2/~>
oDeLaJcC<$q#C0jJcC<$OoP7Xs8VZjoDeXeVZ2/~>
oDeLaJcC<$q#C0jJcC<$OoP7Xs8VZjoDeXeVZ2/~>
oDeLaJcC<$q#C0jJcC<$OoP7Xs8VZjoDeXeVZ2/~>
o`+XcJcC<$pAashJcC<$OoP7XrVuHhp&FjgVZ2/~>
o`+XcJcC<$pAashJcC<$OoP7XrVuHhp&FjgVZ2/~>
o`+XcJcC<$pAashJcC<$OoP7XrVuHhp&FjgVZ2/~>
p&FadJcC<$p&FjgJcC<$OoP7Xqu?6fp]('iVZ2/~>
p&FadJcC<$p&FjgJcC<$OoP7Xqu?6fp]('iVZ2/~>
p&FadJcC<$p&FjgJcC<$OoP7Xqu?6fp]('iVZ2/~>
p]'peJcC<$o`+afJcC<$OoP7Xq>^$dq>^9kVZ2/~>
p]'peJcC<$o`+afJcC<$OoP7Xq>^$dq>^9kVZ2/~>
p]'peJcC<$o`+afJcC<$OoP7Xq>^$dq>^9kVZ2/~>
q#C'gJcC<$o)JOdJcC<$OoP7Xq#BpcqZ$BlVZ2/~>
q#C'gJcC<$o)JOdJcC<$OoP7Xq#BpcqZ$BlVZ2/~>
q#C'gJcC<$o)JOdJcC<$OoP7Xq#BpcqZ$BlVZ2/~>
q>^0hJcC<$nc/FcJcC<$OoP7XpAa^ar;ZTnVZ2/~>
q>^0hJcC<$nc/FcJcC<$OoP7XpAa^ar;ZTnVZ2/~>
q>^0hJcC<$nc/FcJcC<$OoP7XpAa^ar;ZTnVZ2/~>
qu??iJcC<$nGi=bJcC<$OoP7Xo`+L_rr;fpVZ2/~>
qu??iJcC<$nGi=bJcC<$OoP7Xo`+L_rr;fpVZ2/~>
qu??iJcC<$nGi=bJcC<$OoP7Xo`+L_rr;fpVZ2/~>
r;ZHjJcC<$n,N4aJcC<$OoP7Xo)J:]!<;lqVZ2/~>
r;ZHjJcC<$n,N4aJcC<$OoP7Xo)J:]!<;lqVZ2/~>
r;ZHjJcC<$n,N4aJcC<$OoP7Xo)J:]!<;lqVZ2/~>
rVuTlJcC<$mJm"_JcC<$OoP7XnGhkUVZ2/~>
rVuTlJcC<$mJm"_JcC<$OoP7XnGhkUVZ2/~>
rVuTlJcC<$mJm"_JcC<$OoP7XnGhkUVZ2/~>
s8VcmJcC<$m/Qn^JcC<$OoP7Xmf2_UVZ2/~>
s8VcmJcC<$m/Qn^JcC<$OoP7Xmf2_UVZ2/~>
s8VcmJcC<$m/Qn^JcC<$OoP7Xmf2_UVZ2/~>
!<;`mJcC<$li6e]JcC<$OoP7XmJlYUVZ2/~>
!<;`mJcC<$li6e]JcC<$OoP7XmJlYUVZ2/~>
!<;`mJcC<$li6e]JcC<$OoP7XmJlYUVZ2/~>
!<;foJcC<$l2US[JcC<$OoP7Xli6MUVZ2/~>
!<;foJcC<$l2US[JcC<$OoP7Xli6MUVZ2/~>
!<;foJcC<$l2US[JcC<$OoP7Xli6MUVZ2/~>
JH16$TE'QCJcEjlq>fd[oDkcgJ,~>
JH16$TE'QCJcEjlq>fd[oDkcgJ,~>
JH16$TE'QCJcEjlq>fd[oDkcgJ,~>
JH16$JH16$JH4X/kPt5UVZ2/~>
JH16$JH16$JH4X/kPt5UVZ2/~>
JH16$JH16$JH4X/kPt5UVZ2/~>
JH16$JH16$JH4X/jo>)UVZ2/~>
JH16$JH16$JH4X/jo>)UVZ2/~>
JH16$JH16$JH4X/jo>)UVZ2/~>
JH16$JH16$JH4X/kPt5UVZ2/~>
JH16$JH16$JH4X/kPt5UVZ2/~>
JH16$JH16$JH4X/kPt5UVZ2/~>
JH16$JH16$JH4X/kl:;UVZ2/~>
JH16$JH16$JH4X/kl:;UVZ2/~>
JH16$JH16$JH4X/kl:;UVZ2/~>
JH16$JH16$JH4X/lMpJVV>l&~>
JH16$JH16$JH4X/lMpJVV>l&~>
JH16$JH16$JH4X/lMpJVV>l&~>
JH16$JH16$JH4X/m/QYWV#Pr~>
JH16$JH16$JH4X/m/QYWV#Pr~>
JH16$JH16$JH4X/m/QYWV#Pr~>
JcC<$T`9QCJH3OemJlbXU]5i~>
JcC<$T`9QCJH3OemJlbXU]5i~>
JcC<$T`9QCJH3OemJlbXU]5i~>
JcC<$JcC<$JcFs6q>g!aoDkQaJ,~>
JcC<$JcC<$JcFs6q>g!aoDkQaJ,~>
JcC<$JcC<$JcFs6q>g!aoDkQaJ,~>
JcC<$JcC<$JcFs6q>g'coDkK_J,~>
JcC<$JcC<$JcFs6q>g'coDkK_J,~>
JcC<$JcC<$JcFs6q>g'coDkK_J,~>
JcC<$JcC<$JcFs6q>g*doDkH^J,~>
JcC<$JcC<$JcFs6q>g*doDkH^J,~>
JcC<$JcC<$JcFs6q>g*doDkH^J,~>
JcC<$JcC<$JcFs6q>g0foDkB\J,~>
JcC<$JcC<$JcFs6q>g0foDkB\J,~>
JcC<$JcC<$JcFs6q>g0foDkB\J,~>
JcC<$JcC<$JcFs6q>g3go`1E[J,~>
JcC<$JcC<$JcFs6q>g3go`1E[J,~>
JcC<$JcC<$JcFs6q>g3go`1E[J,~>
JcC<$JcC<$JcFs6q>g9ioDk9YJ,~>
JcC<$JcC<$JcFs6q>g9ioDk9YJ,~>
JcC<$JcC<$JcFs6q>g9ioDk9YJ,~>
JcC<$JcC<$JcFs6q>g?koDk3WJ,~>
JcC<$JcC<$JcFs6q>g?koDk3WJ,~>
JcC<$JcC<$JcFs6q>g?koDk3WJ,~>
JcC<$JcC<$JcFs6q>gBlo`16VJ,~>
JcC<$JcC<$JcFs6q>gBlo`16VJ,~>
JcC<$JcC<$JcFs6q>gBlo`16VJ,~>
JcC<$JcC<$JcFs6q>gHnoDk*TJ,~>
JcC<$JcC<$JcFs6q>gHnoDk*TJ,~>
JcC<$JcC<$JcFs6q>gHnoDk*TJ,~>
JcC<$JcC<$JcFs6q>gNpoDk$RJ,~>
JcC<$JcC<$JcFs6q>gNpoDk$RJ,~>
JcC<$JcC<$JcFs6q>gNpoDk$RJ,~>
JcC<$JcC<$JcFs6q>gQqoDk!QJ,~>
JcC<$JcC<$JcFs6q>gQqoDk!QJ,~>
JcC<$JcC<$JcFs6q>gQqoDk!QJ,~>
JcC<$JcC<$JcFs6m/W1HJ,~>
JcC<$JcC<$JcFs6m/W1HJ,~>
JcC<$JcC<$JcFs6m/W1HJ,~>
JcC<$JcC<$JcFs6mf8=HJ,~>
JcC<$JcC<$JcFs6mf8=HJ,~>
JcC<$JcC<$JcFs6mf8=HJ,~>
JcC<$JcC<$JcFs6n,SCHJ,~>
JcC<$JcC<$JcFs6n,SCHJ,~>
JcC<$JcC<$JcFs6n,SCHJ,~>
JcC<$JcC<$JcFs6nc4OHJ,~>
JcC<$JcC<$JcFs6nc4OHJ,~>
JcC<$JcC<$JcFs6nc4OHJ,~>
JcC<$JcC<$JcFs6oDj[HJ,~>
JcC<$JcC<$JcFs6oDj[HJ,~>
JcC<$JcC<$JcFs6oDj[HJ,~>
JcC<$JcC<$JcFs6o`0aHJ,~>
JcC<$JcC<$JcFs6o`0aHJ,~>
JcC<$JcC<$JcFs6o`0aHJ,~>
JcC<$JcC<$JcFs6pAfmHJ,~>
JcC<$JcC<$JcFs6pAfmHJ,~>
JcC<$JcC<$JcFs6pAfmHJ,~>
JcC<$JcC<$JcFm4qZ)6JJ,~>
JcC<$JcC<$JcFm4qZ)6JJ,~>
JcC<$JcC<$JcFm4qZ)6JJ,~>
JcC<$JcC<$JcFj3r;_EKJ,~>
JcC<$JcC<$JcFj3r;_EKJ,~>
JcC<$JcC<$JcFj3r;_EKJ,~>
JcC<$JcC<$JcC<$iW"E~>
JcC<$JcC<$JcC<$iW"E~>
JcC<$JcC<$JcC<$iW"E~>
JcC<$JcC<$JcC<$iW"E~>
JcC<$JcC<$JcC<$iW"E~>
JcC<$JcC<$JcC<$iW"E~>
JcC<$JcC<$JcC<$iW"E~>
JcC<$JcC<$JcC<$iW"E~>
JcC<$JcC<$JcC<$iW"E~>
JcC<$JcC<$JcC<$iW"E~>
JcC<$JcC<$JcC<$iW"E~>
JcC<$JcC<$JcC<$iW"E~>
JcC<$JcC<$JcC<$iW"E~>
JcC<$JcC<$JcC<$iW"E~>
JcC<$JcC<$JcC<$iW"E~>
JcC<$JcC<$JcC<$iW"E~>
JcC<$JcC<$JcC<$iW"E~>
JcC<$JcC<$JcC<$iW"E~>
JcC<$JcC<$JcC<$iW"E~>
JcC<$JcC<$JcC<$iW"E~>
JcC<$JcC<$JcC<$iW"E~>
JcC<$Sc8\ukl:]EJcC<$JcFX-J,~>
JcC<$Sc8\%kl:^FJcC<$JcFX-J,~>
JcC<$Sc@mR!8E))JcC<$huA3~>
JcC<$R/[.Il2UfFJcC<$JcFd1J,~>
JcC<$RK!9Akl:^FJcC<$JcFd1J,~>
JcC<$RK!8Kkl:_<JcC<$JcFd1J,~>
JcC<$Qi@&oq#CD,qZ$?k!'5]2JcC<$jo9i~>
JcC<$Qi@%tq#CE'qu6Z)q#CDVJcC<$JcFj3J,~>
JcC<$QiHg\qYpP-q#CELJcC<$JcFj3J,~>
JcC<$QN$qGqZ$UWp\t5*q>^N(JcC<$JcFp5J,~>
JcC<$Qi@'?q>^MWp]($hJcC<$JcFm4J,~>
JcC<$Qi@&Iq>^NMq#:?&q>^M-JcC<$JcFm4J,~>
JcC<$QN$rHqZ$UWpAY-$q>^MWJcC<$JcFs6J,~>
JcC<$QN$qGqZ$VXpAY,)q>^NMJcC<$JcFs6J,~>
JcC<$Qi@'?q>^NMpAash!'5]2JcC<$kPp&~>
JcC<$QN$rnqZ$UWp&>#Rq>^MWJcC<$JcG!7J,~>
JcC<$QN$qsqZ$VXp&>"Qq>^NMJcC<$JcG!7J,~>
JcC<$QN-d]!8I5I!8I>M!'5]2JcC<$kl6/~>
JcC<$QN$rnqZ$UWo`"o'q>^N(JcC<$JcG$8J,~>
JcC<$QN$qsqZ$VXo`+^eJcC<$JcG!7J,~>
JcC<$QN-d]!8I2H!4M_(!+pf^JcC<$l2Q8~>
JcC<$QN$s>qZ$UWo`"pGq#H!GJcC<$lMlA~>
JcC<$QN$rHqZ$VXo`"oQq>^M-JcC<$JcG$8J,~>
JcC<$QN$qGqZ$WNo`"nPq>^N(JcC<$JcG$8J,~>
JcC<$QN$s>qZ$UWoD\f&q>^MWJcC<$JcG'9J,~>
JcC<$QN$rHqZ$VXoDeUd!8E))JcC<$li2J~>
JcC<$QN$qGqZ$WNo`"p"q>^LVJcC<$JcG$8J,~>
JcC<$QN$s>qZ$UWoD\g!q>^LVJcC<$JcG'9J,~>
JcC<$QN$rHqZ$VXoD\f&q>^MWJcC<$JcG'9J,~>
JcC<$QN$qGqZ$WNoDeUd!8E))JcC<$li2J~>
JcC<$QN$s>qZ$UWoD\gFq#CELJcC<$JcG*:J,~>
JcC<$QN$rHqZ$VXoD\fPq>^LVJcC<$JcG'9J,~>
JcC<$QN$qGqZ$WNoD\eOq>^MWJcC<$JcG'9J,~>
JcC<$QN$s>qZ$UWo)JLc!4IIYJcC<$m/MS~>
JcC<$QN$rHqZ$VXoD\g!q#H!GJcC<$li2J~>
JcC<$QN$qGqZ$WNoD\f&q>^M-JcC<$JcG'9J,~>
JcC<$QN$s>qZ$UWo)A\Nq>^MWJcC<$JcG*:J,~>
JcC<$QN$rHqZ$VXoD\gFq#CELJcC<$JcG*:J,~>
JcC<$QN$qGqZ$WNoD\fPq>^LVJcC<$JcG'9J,~>
JcC<$QN$s>qZ$UWo)A]%q>^MWJcC<$JcG*:J,~>
JcC<$QN$rHqZ$VXo)JLc!8E))JcC<$m/MS~>
JcC<$QN$qGqZ$WNoD\g!q>^LVJcC<$JcG'9J,~>
JcC<$QN$s>qZ$UWo)A]%q>^MWJcC<$JcG*:J,~>
JcC<$QN$rHqZ$VXo)JLc!8E))JcC<$m/MS~>
JcC<$QN$qGqZ$WNoD\g!q>^LVJcC<$JcG'9J,~>
JcC<$QN$s>qZ$UWo)A\Nq>^N(JcC<$JcG*:J,~>
JcC<$QN$rHqZ$VXoD\gFq#H!GJcC<$li2J~>
JcC<$QN$qGqZ$WNoD\fPq>^M-JcC<$JcG'9J,~>
JcC<$QN$s>qZ$UWo)JLc!8E))JcC<$m/MS~>
JcC<$QN$rHqZ$VXoD\g!q>^LVJcC<$JcG'9J,~>
JcC<$QN$qGqZ$WNoD\f&q>^MWJcC<$JcG'9J,~>
JcC<$QN$s>qZ$UWoD\gFq#H!GJcC<$li2J~>
JcC<$QN$rHqZ$VXoD\fPq>^M-JcC<$JcG'9J,~>
JcC<$QN$qGqZ$WNoD\eOq>^N(JcC<$JcG'9J,~>
JcC<$QN$s>qZ$UWoD\fPq>^M-JcC<$JcG'9J,~>
JcC<$QN$rHqZ$VXoD\eOq>^N(JcC<$JcG'9J,~>
JcC<$QN$qGqZ$WNo`"pGq#H!GJcC<$lMlA~>
JcC<$QN$s>qZ$UWoD\eOq>^N(JcC<$JcG'9J,~>
JcC<$QN$rHqZ$VXo`"pGq#H!GJcC<$lMlA~>
JcC<$QN$qGqZ$WNo`"oQq>^M-JcC<$JcG$8J,~>
JcC<$QN$s>qZ$UWo`"oQq>^M-JcC<$JcG$8J,~>
JcC<$QN$rHqZ$VXo`"nPq>^N(JcC<$JcG$8J,~>
JcC<$QN$qGqZ$WNp&>$Hq#H!GJcC<$l2Q8~>
JcC<$QN$s>qZ$UWp&>$Hq#H!GJcC<$l2Q8~>
JcC<$QN$rHqZ$VXp&>#Rq>^M-JcC<$JcG!7J,~>
JcC<$QN$qGqZ$WNp&>"Qq>^N(JcC<$JcG!7J,~>
JcC<$QN$s>qZ$UWpAY-Iq#CELJcC<$JcG!7J,~>
JcC<$QN$rHqZ$VXpAY,Sq>^LVJcC<$JcFs6J,~>
JcC<$QN$qGqZ$WNpAY+Rq>^MWJcC<$JcFs6J,~>
JcC<$QN$s>qZ$UWp\t6%q#CELJcC<$JcFs6J,~>
JcC<$QN$rHqZ$VXp\t5*q>^LVJcC<$JcFp5J,~>
JcC<$QN$qGqZ$WNp]($h!0Dd3JcC<$kPp&~>
JcC<$QN$s>q#CELqu6ZNq#CCUJcC<$JcFm4J,~>
JcC<$QN$rHq>^LVqYpPWq#CDVJcC<$JcFm4J,~>
JcC<$QN$qGq>^MWqYpOVq#CELJcC<$JcFm4J,~>
JcC<$QN$s>l2Uh=JcC<$JcFj3J,~>
JcC<$QN$rHlMpoGJcC<$JcFg2J,~>
JcC<$QN$qGlMppHJcC<$JcFg2J,~>
JcC<$QN$s>qZ$[Ys8VcmJcC<$JcF^/J,~>
JcC<$QN$rHqZ$\Zs0hY%!+pf^JcC<$iW"E~>
JcC<$QN$qGqZ$]Ps(;!*!4IIYJcC<$iW"E~>
JcC<$QN$s>qZ$UWJcC<$JcF7"J,~>
JcC<$QN$rHqZ$VXJcC<$JcF7"J,~>
JcC<$QN$qGqZ$WNJcC<$JcF7"J,~>
JcC<$QN$s>qZ$UWJcC<$JcF7"J,~>
JcC<$QN$rHqZ$VXJcC<$JcF7"J,~>
JcC<$QN$qGqZ$WNJcC<$JcF7"J,~>
JcC<$QN$s>qZ$UWJcC<$JcF7"J,~>
JcC<$QN$rHqZ$VXJcC<$JcF7"J,~>
JcC<$QN$qGqZ$WNJcC<$JcF7"J,~>
JcC<$QN$s>qZ$UWJcC<$JcF7"J,~>
JcC<$QN$rHqZ$VXJcC<$JcF7"J,~>
JcC<$QN$qGqZ$WNJcC<$JcF7"J,~>
JcC<$QN$s>qZ$UWJcC<$JcF7"J,~>
JcC<$QN$rHqZ$VXJcC<$JcF7"J,~>
JcC<$QN$qGqZ$WNJcC<$JcF7"J,~>
JcC<$QN$s>qZ$UWJcC<$JcF7"J,~>
JcC<$QN$rHqZ$VXJcC<$JcF7"J,~>
JcC<$QN$qGqZ$WNJcC<$JcF7"J,~>
JcC<$QN$s>qZ$UWJcC<$JcF7"J,~>
JcC<$QN$rHqZ$VXJcC<$JcF7"J,~>
JcC<$QN$qGqZ$WNJcC<$JcF7"J,~>
JcC<$QN$s>qZ$UWJcC<$JcF7"J,~>
JcC<$QN$rHqZ$VXJcC<$JcF7"J,~>
JcC<$QN$qGqZ$WNJcC<$JcF7"J,~>
JcC<$QN$s>qZ$UWJcC<$JcF7"J,~>
JcC<$QN$rHqZ$VXJcC<$JcF7"J,~>
JcC<$QN$qGqZ$WNJcC<$JcF7"J,~>
JcC<$QN$s>qZ$UWJcC<$JcF7"J,~>
JcC<$QN$rHqZ$VXJcC<$JcF7"J,~>
JcC<$QN$qGqZ$WNJcC<$JcF7"J,~>
JcC<$QN$s>qZ$UWJcC<$JcF7"J,~>
JcC<$QN$rHqZ$VXJcC<$JcF7"J,~>
JcC<$QN$qGqZ$WNJcC<$JcF7"J,~>
JcC<$QN$s>qZ$UWJcC<$JcF7"J,~>
JcC<$QN$rHqZ$VXJcC<$JcF7"J,~>
JcC<$QN$qGqZ$WNJcC<$JcF7"J,~>
JcC<$QN$s>qZ$UWJcC<$JcF7"J,~>
JcC<$QN$rHqZ$VXJcC<$JcF7"J,~>
JcC<$QN$qGqZ$WNJcC<$JcF7"J,~>
JcC<$QN$s>qZ$UWJcC<$JcF7"J,~>
JcC<$QN$rHqZ$VXJcC<$JcF7"J,~>
JcC<$QN$qGqZ$WNJcC<$JcF7"J,~>
JcC<$QN$s>qZ$UWJcC<$JcF7"J,~>
JcC<$QN$rHqZ$VXJcC<$JcF7"J,~>
JcC<$QN$qGqZ$WNJcC<$JcF7"J,~>
JcC<$QN$s>qZ$UWJcC<$JcF7"J,~>
JcC<$QN$rHqZ$VXJcC<$JcF7"J,~>
JcC<$QN$qGqZ$WNJcC<$JcF7"J,~>
JcC<$QN$rnqZ$UWJcC<$JcF7"J,~>
JcC<$QN$qsqZ$VXJcC<$JcF7"J,~>
JcC<$QN-d]!8E))JcC<$eGk%~>
JcC<$QN$rnq>c*HJcC<$eGk%~>
JcC<$QN$qsqZ$V.JcC<$JcF7"J,~>
JcC<$QN-d]!4IIYJcC<$eGk%~>
JcC<$QN$rHq>^NMJcC<$JcF:#J,~>
JcC<$QN$qGqZ$UWJcC<$JcF7"J,~>
JcC<$Qi@'?q>^MWJcC<$JcF7"J,~>
JcC<$QN$qGq>^N(JcC<$JcF:#J,~>
JcC<$Qi@'?q#H!GJcC<$eGk%~>
JcC<$Qi@&Iq>^M-JcC<$JcF7"J,~>
JcC<$Qi@&Ip],mFJcC<$ec1.~>
JcC<$Qi@%Hq#CD,JcC<$JcF:#J,~>
JcC<$R/[0@p](<&JcC<$JcF:#J,~>
JcC<$R/[.Ip&G*$JcC<$JcF@%J,~>
JcC<$RK!9Ao`0RCJcC<$f)L7~>
JcC<$RK!8Kp&G))JcC<$JcF=$J,~>
JcC<$Sc8\uli;V:JcC<$g])d~>
JcC<$Sc8\%m/R,uJcC<$JcFL)J,~>
JcC<$ScA$V!4IIYJcC<$g])d~>
JcC<$JcC<$JcC<$iW"E~>
JcC<$JcC<$JcC<$iW"E~>
JcC<$JcC<$JcC<$iW"E~>
JcC<$JcC<$JcC<$iW"E~>
JcC<$JcC<$JcC<$iW"E~>
JcC<$JcC<$JcC<$iW"E~>
JcC<$JcC<$JcC<$iW"E~>
JcC<$JcC<$JcC<$iW"E~>
JcC<$JcC<$JcC<$iW"E~>
JcC<$JcC<$JcC<$iW"E~>
JcC<$JcC<$JcC<$iW"E~>
JcC<$JcC<$JcC<$iW"E~>
JcC<$JcC<$JcC<$iW"E~>
JcC<$JcC<$JcC<$iW"E~>
JcC<$JcC<$JcC<$iW"E~>
JcC<$JcC<$JcC<$iW"E~>
JcC<$JcC<$JcC<$iW"E~>
JcC<$JcC<$JcC<$iW"E~>
JcC<$JcC<$JcC<$iW"E~>
JcC<$JcC<$JcC<$iW"E~>
JcC<$JcC<$JcC<$iW"E~>
JcC<$JcC<$JcC<$iW"E~>
JcC<$JcC<$JcC<$iW"E~>
JcC<$JcC<$JcC<$iW"E~>
JcC<$JcC<$JcC<$iW"E~>
JcC<$JcC<$JcC<$iW"E~>
JcC<$JcC<$JcC<$iW"E~>
%%EndData
showpage
%%Trailer
end
%%EOF
